sdr_ctrl/trunk/verif/tb/DVEfiles/dve_gui.log
Chronologic VCS simulator copyright 1991-2017
Contains Synopsys proprietary information.
Compiler version M-2017.03_Full64; Runtime version M-2017.03_Full64;  Dec  4 00:20 2018
VCD+ Writer M-2017.03_Full64 Copyright (c) 1991-2017 by Synopsys Inc.
The design has assertions or cover properties.
The assertion browser can be used to view them. Click on the assertion toolbar button or use the menu 'Window->Panes->Assertion' to open it.
The file '/mnt/vol_NFS_Zener/WD_ESPEC/fparis/MP6134_SDRAM_Controller/sdr_ctrl/trunk/verif/tb/inter.vpd' was opened successfully.
Creating SDRC Environment
Creating address with diff bank and row stimulus
Creating address stimulus
Creating page cross-over stimulus
Creating SDRC Driver
Creating SDRC Monitor
Creating SDRC Environment
Creating address with diff bank and row stimulus
Creating address stimulus
Creating page cross-over stimulus
Creating SDRC Driver
Creating SDRC Monitor
top.u_sdram32 : at time  10212.00 ns AREF : Auto Refresh
top.u_sdram32 : at time  10392.00 ns AREF : Auto Refresh
top.u_sdram32 : at time  10572.00 ns AREF : Auto Refresh
top.u_sdram32 : at time  10752.00 ns AREF : Auto Refresh
top.u_sdram32 : at time  10932.00 ns AREF : Auto Refresh
top.u_sdram32 : at time  11112.00 ns AREF : Auto Refresh
top.u_sdram32 : at time  11292.00 ns AREF : Auto Refresh
top.u_sdram32 : at time  11472.00 ns AREF : Auto Refresh
top.u_sdram32 : at time  11652.00 ns AREF : Auto Refresh
top.u_sdram32 : at time  11832.00 ns AREF : Auto Refresh
top.u_sdram32 : at time  12012.00 ns AREF : Auto Refresh
top.u_sdram32 : at time  12192.00 ns AREF : Auto Refresh
top.u_sdram32 : at time  12372.00 ns AREF : Auto Refresh
top.u_sdram32 : at time  12552.00 ns AREF : Auto Refresh
top.u_sdram32 : at time  12732.00 ns AREF : Auto Refresh
top.u_sdram32 : at time  12912.00 ns LMR  : Load Mode Register
top.u_sdram32 :                             CAS Latency      = 3
top.u_sdram32 :                             Burst Length     = 8
top.u_sdram32 :                             Burst Type       = Sequential
top.u_sdram32 :                             Write Burst Mode = Programmed Burst Length
-------------------------------------- 
 Case-1: Single Write/Read Case        
-------------------------------------- 
Write Address: 007ec683, Burst Size:          3
Status: Burst-No:           0  Write Address: 01fb1a0  WriteData: 12153524 
Status: Burst-No:           1  Write Address: 01fb1a1  WriteData: c0895e81 
Status: Burst-No:           2  Write Address: 01fb1a2  WriteData: 8484d609 
top.u_sdram32 : at time  13292.00 ns ACT  : Bank = 1 Row = 2028
top.u_sdram32 : at time  13372.00 ns WRITE: Bank = 1 Row = 2028, Col = 160, Data = 12153524
top.u_sdram32 : at time  13392.00 ns BST  : Burst Terminate
top.u_sdram32 : at time  13432.00 ns WRITE: Bank = 1 Row = 2028, Col = 161, Data = c0895e81
top.u_sdram32 : at time  13452.00 ns BST  : Burst Terminate
top.u_sdram32 : at time  13492.00 ns WRITE: Bank = 1 Row = 2028, Col = 162, Data = 8484d609
top.u_sdram32 : at time  13512.00 ns BST  : Burst Terminate
"../tb/assertions.sv", 75: top.assertion.wb_AND: started at 14145000ps failed at 14145000ps
	Offending '$rose(whitebox_if.wb_ack_o)'
Error: "../tb/assertions.sv", 75: top.assertion.wb_AND: at time 14145000 ps
Wishbone Protocol Rule 3.35 violated
top.u_sdram32 : at time  14292.00 ns BST  : Burst Terminate
top.u_sdram32 : at time  14318.00 ns READ : Bank = 1 Row = 2028, Col = 160, Data = 12153524
READ STATUS: Burst-No:           0 Addr: 01fb1a0 Rxd: 12153524
top.u_sdram32 : at time  14552.00 ns BST  : Burst Terminate
top.u_sdram32 : at time  14578.00 ns READ : Bank = 1 Row = 2028, Col = 161, Data = c0895e81
READ STATUS: Burst-No:           1 Addr: 01fb1a1 Rxd: c0895e81
top.u_sdram32 : at time  14812.00 ns BST  : Burst Terminate
top.u_sdram32 : at time  14838.00 ns READ : Bank = 1 Row = 2028, Col = 162, Data = 8484d609
READ STATUS: Burst-No:           2 Addr: 01fb1a2 Rxd: 8484d609
-------------------------------------- 
 End-1: Single Write/Read Case        
-------------------------------------- 
-------------------------------------- 
 Case-2: x2 Write/Read Case        
-------------------------------------- 
Write Address: 00da462d, Burst Size:         13
Status: Burst-No:           0  Write Address: 036918b  WriteData: b1f05663 
Status: Burst-No:           1  Write Address: 036918c  WriteData: 06b97b0d 
Status: Burst-No:           2  Write Address: 036918d  WriteData: 46df998d 
Status: Burst-No:           3  Write Address: 036918e  WriteData: b2c28465 
Status: Burst-No:           4  Write Address: 036918f  WriteData: 89375212 
top.u_sdram32 : at time  15132.00 ns ACT  : Bank = 1 Row = 1444
top.u_sdram32 : at time  15212.00 ns WRITE: Bank = 1 Row = 1444, Col = 139, Data = b1f05663
top.u_sdram32 : at time  15232.00 ns BST  : Burst Terminate
top.u_sdram32 : at time  15272.00 ns WRITE: Bank = 1 Row = 1444, Col = 140, Data = 06b97b0d
Status: Burst-No:           5  Write Address: 0369190  WriteData: 00f3e301 
top.u_sdram32 : at time  15292.00 ns BST  : Burst Terminate
top.u_sdram32 : at time  15332.00 ns WRITE: Bank = 1 Row = 1444, Col = 141, Data = 46df998d
Status: Burst-No:           6  Write Address: 0369191  WriteData: 06d7cd0d 
top.u_sdram32 : at time  15352.00 ns BST  : Burst Terminate
top.u_sdram32 : at time  15392.00 ns WRITE: Bank = 1 Row = 1444, Col = 142, Data = b2c28465
Status: Burst-No:           7  Write Address: 0369192  WriteData: 3b23f176 
top.u_sdram32 : at time  15412.00 ns BST  : Burst Terminate
top.u_sdram32 : at time  15452.00 ns WRITE: Bank = 1 Row = 1444, Col = 143, Data = 89375212
Status: Burst-No:           8  Write Address: 0369193  WriteData: 1e8dcd3d 
top.u_sdram32 : at time  15472.00 ns BST  : Burst Terminate
top.u_sdram32 : at time  15512.00 ns WRITE: Bank = 1 Row = 1444, Col = 144, Data = 00f3e301
Status: Burst-No:           9  Write Address: 0369194  WriteData: 76d457ed 
top.u_sdram32 : at time  15532.00 ns BST  : Burst Terminate
top.u_sdram32 : at time  15572.00 ns WRITE: Bank = 1 Row = 1444, Col = 145, Data = 06d7cd0d
Status: Burst-No:          10  Write Address: 0369195  WriteData: 462df78c 
top.u_sdram32 : at time  15592.00 ns BST  : Burst Terminate
top.u_sdram32 : at time  15632.00 ns WRITE: Bank = 1 Row = 1444, Col = 146, Data = 3b23f176
Status: Burst-No:          11  Write Address: 0369196  WriteData: 7cfde9f9 
top.u_sdram32 : at time  15652.00 ns BST  : Burst Terminate
top.u_sdram32 : at time  15692.00 ns WRITE: Bank = 1 Row = 1444, Col = 147, Data = 1e8dcd3d
Status: Burst-No:          12  Write Address: 0369197  WriteData: e33724c6 
top.u_sdram32 : at time  15712.00 ns BST  : Burst Terminate
"../tb/assertions.sv", 75: top.assertion.wb_AND: started at 15715000ps failed at 15715000ps
	Offending '$rose(whitebox_if.wb_ack_o)'
Error: "../tb/assertions.sv", 75: top.assertion.wb_AND: at time 15715000 ps
Wishbone Protocol Rule 3.35 violated
top.u_sdram32 : at time  15752.00 ns WRITE: Bank = 1 Row = 1444, Col = 148, Data = 76d457ed
top.u_sdram32 : at time  15772.00 ns BST  : Burst Terminate
top.u_sdram32 : at time  15812.00 ns WRITE: Bank = 1 Row = 1444, Col = 149, Data = 462df78c
top.u_sdram32 : at time  15832.00 ns BST  : Burst Terminate
top.u_sdram32 : at time  15872.00 ns WRITE: Bank = 1 Row = 1444, Col = 150, Data = 7cfde9f9
top.u_sdram32 : at time  15892.00 ns BST  : Burst Terminate
top.u_sdram32 : at time  15932.00 ns WRITE: Bank = 1 Row = 1444, Col = 151, Data = e33724c6
top.u_sdram32 : at time  15952.00 ns BST  : Burst Terminate
top.u_sdram32 : at time  16012.00 ns BST  : Burst Terminate
top.u_sdram32 : at time  16038.00 ns READ : Bank = 1 Row = 1444, Col = 139, Data = b1f05663
READ STATUS: Burst-No:           0 Addr: 036918b Rxd: b1f05663
top.u_sdram32 : at time  16272.00 ns BST  : Burst Terminate
top.u_sdram32 : at time  16298.00 ns READ : Bank = 1 Row = 1444, Col = 140, Data = 06b97b0d
READ STATUS: Burst-No:           1 Addr: 036918c Rxd: 06b97b0d
top.u_sdram32 : at time  16532.00 ns BST  : Burst Terminate
top.u_sdram32 : at time  16558.00 ns READ : Bank = 1 Row = 1444, Col = 141, Data = 46df998d
READ STATUS: Burst-No:           2 Addr: 036918d Rxd: 46df998d
top.u_sdram32 : at time  16792.00 ns BST  : Burst Terminate
top.u_sdram32 : at time  16818.00 ns READ : Bank = 1 Row = 1444, Col = 142, Data = b2c28465
READ STATUS: Burst-No:           3 Addr: 036918e Rxd: b2c28465
top.u_sdram32 : at time  17052.00 ns BST  : Burst Terminate
top.u_sdram32 : at time  17078.00 ns READ : Bank = 1 Row = 1444, Col = 143, Data = 89375212
READ STATUS: Burst-No:           4 Addr: 036918f Rxd: 89375212
top.u_sdram32 : at time  17312.00 ns BST  : Burst Terminate
top.u_sdram32 : at time  17338.00 ns READ : Bank = 1 Row = 1444, Col = 144, Data = 00f3e301
READ STATUS: Burst-No:           5 Addr: 0369190 Rxd: 00f3e301
top.u_sdram32 : at time  17572.00 ns BST  : Burst Terminate
top.u_sdram32 : at time  17598.00 ns READ : Bank = 1 Row = 1444, Col = 145, Data = 06d7cd0d
READ STATUS: Burst-No:           6 Addr: 0369191 Rxd: 06d7cd0d
top.u_sdram32 : at time  17832.00 ns BST  : Burst Terminate
top.u_sdram32 : at time  17858.00 ns READ : Bank = 1 Row = 1444, Col = 146, Data = 3b23f176
READ STATUS: Burst-No:           7 Addr: 0369192 Rxd: 3b23f176
top.u_sdram32 : at time  18092.00 ns BST  : Burst Terminate
top.u_sdram32 : at time  18118.00 ns READ : Bank = 1 Row = 1444, Col = 147, Data = 1e8dcd3d
READ STATUS: Burst-No:           8 Addr: 0369193 Rxd: 1e8dcd3d
top.u_sdram32 : at time  18352.00 ns BST  : Burst Terminate
top.u_sdram32 : at time  18378.00 ns READ : Bank = 1 Row = 1444, Col = 148, Data = 76d457ed
READ STATUS: Burst-No:           9 Addr: 0369194 Rxd: 76d457ed
top.u_sdram32 : at time  18612.00 ns BST  : Burst Terminate
top.u_sdram32 : at time  18638.00 ns READ : Bank = 1 Row = 1444, Col = 149, Data = 462df78c
READ STATUS: Burst-No:          10 Addr: 0369195 Rxd: 462df78c
top.u_sdram32 : at time  18872.00 ns BST  : Burst Terminate
top.u_sdram32 : at time  18898.00 ns READ : Bank = 1 Row = 1444, Col = 150, Data = 7cfde9f9
READ STATUS: Burst-No:          11 Addr: 0369196 Rxd: 7cfde9f9
top.u_sdram32 : at time  19132.00 ns BST  : Burst Terminate
top.u_sdram32 : at time  19158.00 ns READ : Bank = 1 Row = 1444, Col = 151, Data = e33724c6
READ STATUS: Burst-No:          12 Addr: 0369197 Rxd: e33724c6
Write Address: 00757924, Burst Size:          3
Status: Burst-No:           0  Write Address: 01d5e49  WriteData: e2f784c5 
Status: Burst-No:           1  Write Address: 01d5e4a  WriteData: d513d2aa 
Status: Burst-No:           2  Write Address: 01d5e4b  WriteData: 72aff7e5 
"../tb/assertions.sv", 75: top.assertion.wb_AND: started at 19295000ps failed at 19295000ps
	Offending '$rose(whitebox_if.wb_ack_o)'
Error: "../tb/assertions.sv", 75: top.assertion.wb_AND: at time 19295000 ps
Wishbone Protocol Rule 3.35 violated
top.u_sdram32 : at time  19452.00 ns ACT  : Bank = 2 Row = 1879
top.u_sdram32 : at time  19532.00 ns WRITE: Bank = 2 Row = 1879, Col =  73, Data = e2f784c5
top.u_sdram32 : at time  19552.00 ns BST  : Burst Terminate
top.u_sdram32 : at time  19592.00 ns WRITE: Bank = 2 Row = 1879, Col =  74, Data = d513d2aa
top.u_sdram32 : at time  19612.00 ns BST  : Burst Terminate
top.u_sdram32 : at time  19652.00 ns WRITE: Bank = 2 Row = 1879, Col =  75, Data = 72aff7e5
top.u_sdram32 : at time  19672.00 ns BST  : Burst Terminate
top.u_sdram32 : at time  19732.00 ns BST  : Burst Terminate
top.u_sdram32 : at time  19758.00 ns READ : Bank = 2 Row = 1879, Col =  73, Data = e2f784c5
READ STATUS: Burst-No:           0 Addr: 01d5e49 Rxd: e2f784c5
top.u_sdram32 : at time  19992.00 ns BST  : Burst Terminate
top.u_sdram32 : at time  20018.00 ns READ : Bank = 2 Row = 1879, Col =  74, Data = d513d2aa
READ STATUS: Burst-No:           1 Addr: 01d5e4a Rxd: d513d2aa
top.u_sdram32 : at time  20252.00 ns BST  : Burst Terminate
top.u_sdram32 : at time  20278.00 ns READ : Bank = 2 Row = 1879, Col =  75, Data = 72aff7e5
READ STATUS: Burst-No:           2 Addr: 01d5e4b Rxd: 72aff7e5
-------------------------------------- 
 End-2: x2 Write/Read Case        
-------------------------------------- 
----------------------------------------
 Case-3 Create a Page Cross Over        
----------------------------------------
Write Address: 00b00fec, Burst Size:         13
Status: Burst-No:           0  Write Address: 02c03fb  WriteData: bbd27277 
Status: Burst-No:           1  Write Address: 02c03fc  WriteData: 8932d612 
Status: Burst-No:           2  Write Address: 02c03fd  WriteData: 47ecdb8f 
Status: Burst-No:           3  Write Address: 02c03fe  WriteData: 793069f2 
Status: Burst-No:           4  Write Address: 02c03ff  WriteData: e77696ce 
top.u_sdram32 : at time  20572.00 ns ACT  : Bank = 3 Row =  768
top.u_sdram32 : at time  20652.00 ns WRITE: Bank = 3 Row =  768, Col = 251, Data = bbd27277
top.u_sdram32 : at time  20672.00 ns BST  : Burst Terminate
top.u_sdram32 : at time  20712.00 ns WRITE: Bank = 3 Row =  768, Col = 252, Data = 8932d612
Status: Burst-No:           5  Write Address: 02c0400  WriteData: f4007ae8 
top.u_sdram32 : at time  20732.00 ns BST  : Burst Terminate
top.u_sdram32 : at time  20772.00 ns WRITE: Bank = 3 Row =  768, Col = 253, Data = 47ecdb8f
Status: Burst-No:           6  Write Address: 02c0401  WriteData: e2ca4ec5 
top.u_sdram32 : at time  20792.00 ns BST  : Burst Terminate
top.u_sdram32 : at time  20832.00 ns WRITE: Bank = 3 Row =  768, Col = 254, Data = 793069f2
Status: Burst-No:           7  Write Address: 02c0402  WriteData: 2e58495c 
top.u_sdram32 : at time  20852.00 ns BST  : Burst Terminate
top.u_sdram32 : at time  20892.00 ns WRITE: Bank = 3 Row =  768, Col = 255, Data = e77696ce
Status: Burst-No:           8  Write Address: 02c0403  WriteData: de8e28bd 
top.u_sdram32 : at time  20912.00 ns BST  : Burst Terminate
Status: Burst-No:           9  Write Address: 02c0404  WriteData: 96ab582d 
top.u_sdram32 : at time  21032.00 ns ACT  : Bank = 0 Row =  769
top.u_sdram32 : at time  21112.00 ns WRITE: Bank = 0 Row =  769, Col =   0, Data = f4007ae8
top.u_sdram32 : at time  21132.00 ns BST  : Burst Terminate
top.u_sdram32 : at time  21152.00 ns WRITE: Bank = 0 Row =  769, Col =   1, Data = e2ca4ec5
top.u_sdram32 : at time  21172.00 ns BST  : Burst Terminate
Status: Burst-No:          10  Write Address: 02c0405  WriteData: b2a72665 
top.u_sdram32 : at time  21192.00 ns WRITE: Bank = 0 Row =  769, Col =   2, Data = 2e58495c
top.u_sdram32 : at time  21212.00 ns BST  : Burst Terminate
Status: Burst-No:          11  Write Address: 02c0406  WriteData: b1ef6263 
top.u_sdram32 : at time  21232.00 ns WRITE: Bank = 0 Row =  769, Col =   3, Data = de8e28bd
top.u_sdram32 : at time  21252.00 ns BST  : Burst Terminate
Status: Burst-No:          12  Write Address: 02c0407  WriteData: 0573870a 
Write Address: 0073ffe8, Burst Size:          8
top.u_sdram32 : at time  21272.00 ns WRITE: Bank = 0 Row =  769, Col =   4, Data = 96ab582d
top.u_sdram32 : at time  21292.00 ns BST  : Burst Terminate
Status: Burst-No:           0  Write Address: 01cfffa  WriteData: c03b2280 
top.u_sdram32 : at time  21312.00 ns WRITE: Bank = 0 Row =  769, Col =   5, Data = b2a72665
top.u_sdram32 : at time  21332.00 ns BST  : Burst Terminate
Status: Burst-No:           1  Write Address: 01cfffb  WriteData: 10642120 
top.u_sdram32 : at time  21352.00 ns WRITE: Bank = 0 Row =  769, Col =   6, Data = b1ef6263
top.u_sdram32 : at time  21372.00 ns BST  : Burst Terminate
Status: Burst-No:           2  Write Address: 01cfffc  WriteData: 557845aa 
top.u_sdram32 : at time  21392.00 ns WRITE: Bank = 0 Row =  769, Col =   7, Data = 0573870a
top.u_sdram32 : at time  21412.00 ns BST  : Burst Terminate
Status: Burst-No:           3  Write Address: 01cfffd  WriteData: cecccc9d 
Status: Burst-No:           4  Write Address: 01cfffe  WriteData: cb203e96 
top.u_sdram32 : at time  21532.00 ns ACT  : Bank = 3 Row = 1855
top.u_sdram32 : at time  21612.00 ns WRITE: Bank = 3 Row = 1855, Col = 250, Data = c03b2280
top.u_sdram32 : at time  21632.00 ns BST  : Burst Terminate
top.u_sdram32 : at time  21672.00 ns WRITE: Bank = 3 Row = 1855, Col = 251, Data = 10642120
Status: Burst-No:           5  Write Address: 01cffff  WriteData: 8983b813 
top.u_sdram32 : at time  21692.00 ns BST  : Burst Terminate
top.u_sdram32 : at time  21732.00 ns WRITE: Bank = 3 Row = 1855, Col = 252, Data = 557845aa
Status: Burst-No:           6  Write Address: 01d0000  WriteData: 86bc380d 
top.u_sdram32 : at time  21752.00 ns BST  : Burst Terminate
top.u_sdram32 : at time  21792.00 ns WRITE: Bank = 3 Row = 1855, Col = 253, Data = cecccc9d
Status: Burst-No:           7  Write Address: 01d0001  WriteData: a9a7d653 
Write Address: 001fafe8, Burst Size:         13
top.u_sdram32 : at time  21812.00 ns BST  : Burst Terminate
top.u_sdram32 : at time  21852.00 ns WRITE: Bank = 3 Row = 1855, Col = 254, Data = cb203e96
Status: Burst-No:           0  Write Address: 007ebfa  WriteData: 359fdd6b 
top.u_sdram32 : at time  21872.00 ns BST  : Burst Terminate
top.u_sdram32 : at time  21912.00 ns WRITE: Bank = 3 Row = 1855, Col = 255, Data = 8983b813
Status: Burst-No:           1  Write Address: 007ebfb  WriteData: eaa62ad5 
top.u_sdram32 : at time  21932.00 ns BST  : Burst Terminate
Status: Burst-No:           2  Write Address: 007ebfc  WriteData: 81174a02 
top.u_sdram32 : at time  22052.00 ns ACT  : Bank = 0 Row = 1856
top.u_sdram32 : at time  22132.00 ns WRITE: Bank = 0 Row = 1856, Col =   0, Data = 86bc380d
top.u_sdram32 : at time  22152.00 ns BST  : Burst Terminate
top.u_sdram32 : at time  22172.00 ns WRITE: Bank = 0 Row = 1856, Col =   1, Data = a9a7d653
top.u_sdram32 : at time  22192.00 ns BST  : Burst Terminate
Status: Burst-No:           3  Write Address: 007ebfd  WriteData: d7563eae 
Status: Burst-No:           4  Write Address: 007ebfe  WriteData: 0effe91d 
top.u_sdram32 : at time  22312.00 ns ACT  : Bank = 3 Row =  506
top.u_sdram32 : at time  22392.00 ns WRITE: Bank = 3 Row =  506, Col = 250, Data = 359fdd6b
top.u_sdram32 : at time  22412.00 ns BST  : Burst Terminate
top.u_sdram32 : at time  22452.00 ns WRITE: Bank = 3 Row =  506, Col = 251, Data = eaa62ad5
Status: Burst-No:           5  Write Address: 007ebff  WriteData: e7c572cf 
top.u_sdram32 : at time  22472.00 ns BST  : Burst Terminate
top.u_sdram32 : at time  22512.00 ns WRITE: Bank = 3 Row =  506, Col = 252, Data = 81174a02
Status: Burst-No:           6  Write Address: 007ec00  WriteData: 11844923 
top.u_sdram32 : at time  22532.00 ns BST  : Burst Terminate
top.u_sdram32 : at time  22572.00 ns WRITE: Bank = 3 Row =  506, Col = 253, Data = d7563eae
Status: Burst-No:           7  Write Address: 007ec01  WriteData: 0509650a 
top.u_sdram32 : at time  22592.00 ns BST  : Burst Terminate
top.u_sdram32 : at time  22632.00 ns WRITE: Bank = 3 Row =  506, Col = 254, Data = 0effe91d
Status: Burst-No:           8  Write Address: 007ec02  WriteData: e5730aca 
top.u_sdram32 : at time  22652.00 ns BST  : Burst Terminate
top.u_sdram32 : at time  22692.00 ns WRITE: Bank = 3 Row =  506, Col = 255, Data = e7c572cf
Status: Burst-No:           9  Write Address: 007ec03  WriteData: 9e314c3c 
top.u_sdram32 : at time  22712.00 ns BST  : Burst Terminate
Status: Burst-No:          10  Write Address: 007ec04  WriteData: 7968bdf2 
top.u_sdram32 : at time  22832.00 ns ACT  : Bank = 0 Row =  507
top.u_sdram32 : at time  22912.00 ns WRITE: Bank = 0 Row =  507, Col =   0, Data = 11844923
top.u_sdram32 : at time  22932.00 ns BST  : Burst Terminate
top.u_sdram32 : at time  22952.00 ns WRITE: Bank = 0 Row =  507, Col =   1, Data = 0509650a
top.u_sdram32 : at time  22972.00 ns BST  : Burst Terminate
Status: Burst-No:          11  Write Address: 007ec05  WriteData: 452e618a 
top.u_sdram32 : at time  22992.00 ns WRITE: Bank = 0 Row =  507, Col =   2, Data = e5730aca
top.u_sdram32 : at time  23012.00 ns BST  : Burst Terminate
Status: Burst-No:          12  Write Address: 007ec06  WriteData: 20c4b341 
top.u_sdram32 : at time  23032.00 ns WRITE: Bank = 0 Row =  507, Col =   3, Data = 9e314c3c
"../tb/assertions.sv", 75: top.assertion.wb_AND: started at 23035000ps failed at 23035000ps
	Offending '$rose(whitebox_if.wb_ack_o)'
Error: "../tb/assertions.sv", 75: top.assertion.wb_AND: at time 23035000 ps
Wishbone Protocol Rule 3.35 violated
top.u_sdram32 : at time  23052.00 ns BST  : Burst Terminate
top.u_sdram32 : at time  23072.00 ns WRITE: Bank = 0 Row =  507, Col =   4, Data = 7968bdf2
top.u_sdram32 : at time  23092.00 ns BST  : Burst Terminate
top.u_sdram32 : at time  23112.00 ns WRITE: Bank = 0 Row =  507, Col =   5, Data = 452e618a
top.u_sdram32 : at time  23132.00 ns BST  : Burst Terminate
top.u_sdram32 : at time  23152.00 ns WRITE: Bank = 0 Row =  507, Col =   6, Data = 20c4b341
top.u_sdram32 : at time  23172.00 ns BST  : Burst Terminate
top.u_sdram32 : at time  23292.00 ns ACT  : Bank = 3 Row =  768
top.u_sdram32 : at time  23392.00 ns BST  : Burst Terminate
top.u_sdram32 : at time  23418.00 ns READ : Bank = 3 Row =  768, Col = 251, Data = bbd27277
READ STATUS: Burst-No:           0 Addr: 02c03fb Rxd: bbd27277
top.u_sdram32 : at time  23652.00 ns BST  : Burst Terminate
top.u_sdram32 : at time  23678.00 ns READ : Bank = 3 Row =  768, Col = 252, Data = 8932d612
READ STATUS: Burst-No:           1 Addr: 02c03fc Rxd: 8932d612
top.u_sdram32 : at time  23912.00 ns BST  : Burst Terminate
top.u_sdram32 : at time  23938.00 ns READ : Bank = 3 Row =  768, Col = 253, Data = 47ecdb8f
READ STATUS: Burst-No:           2 Addr: 02c03fd Rxd: 47ecdb8f
top.u_sdram32 : at time  24172.00 ns BST  : Burst Terminate
top.u_sdram32 : at time  24198.00 ns READ : Bank = 3 Row =  768, Col = 254, Data = 793069f2
READ STATUS: Burst-No:           3 Addr: 02c03fe Rxd: 793069f2
top.u_sdram32 : at time  24432.00 ns BST  : Burst Terminate
top.u_sdram32 : at time  24458.00 ns READ : Bank = 3 Row =  768, Col = 255, Data = e77696ce
READ STATUS: Burst-No:           4 Addr: 02c03ff Rxd: e77696ce
top.u_sdram32 : at time  24732.00 ns ACT  : Bank = 0 Row =  769
top.u_sdram32 : at time  24832.00 ns BST  : Burst Terminate
top.u_sdram32 : at time  24858.00 ns READ : Bank = 0 Row =  769, Col =   0, Data = f4007ae8
READ STATUS: Burst-No:           5 Addr: 02c0400 Rxd: f4007ae8
top.u_sdram32 : at time  25072.00 ns BST  : Burst Terminate
top.u_sdram32 : at time  25098.00 ns READ : Bank = 0 Row =  769, Col =   1, Data = e2ca4ec5
READ STATUS: Burst-No:           6 Addr: 02c0401 Rxd: e2ca4ec5
top.u_sdram32 : at time  25312.00 ns BST  : Burst Terminate
top.u_sdram32 : at time  25338.00 ns READ : Bank = 0 Row =  769, Col =   2, Data = 2e58495c
READ STATUS: Burst-No:           7 Addr: 02c0402 Rxd: 2e58495c
top.u_sdram32 : at time  25552.00 ns BST  : Burst Terminate
top.u_sdram32 : at time  25578.00 ns READ : Bank = 0 Row =  769, Col =   3, Data = de8e28bd
READ STATUS: Burst-No:           8 Addr: 02c0403 Rxd: de8e28bd
top.u_sdram32 : at time  25792.00 ns BST  : Burst Terminate
top.u_sdram32 : at time  25818.00 ns READ : Bank = 0 Row =  769, Col =   4, Data = 96ab582d
READ STATUS: Burst-No:           9 Addr: 02c0404 Rxd: 96ab582d
top.u_sdram32 : at time  26032.00 ns BST  : Burst Terminate
top.u_sdram32 : at time  26058.00 ns READ : Bank = 0 Row =  769, Col =   5, Data = b2a72665
READ STATUS: Burst-No:          10 Addr: 02c0405 Rxd: b2a72665
top.u_sdram32 : at time  26272.00 ns BST  : Burst Terminate
top.u_sdram32 : at time  26298.00 ns READ : Bank = 0 Row =  769, Col =   6, Data = b1ef6263
READ STATUS: Burst-No:          11 Addr: 02c0406 Rxd: b1ef6263
top.u_sdram32 : at time  26512.00 ns BST  : Burst Terminate
top.u_sdram32 : at time  26538.00 ns READ : Bank = 0 Row =  769, Col =   7, Data = 0573870a
READ STATUS: Burst-No:          12 Addr: 02c0407 Rxd: 0573870a
"../tb/assertions.sv", 75: top.assertion.wb_AND: started at 26635000ps failed at 26635000ps
	Offending '$rose(whitebox_if.wb_ack_o)'
Error: "../tb/assertions.sv", 75: top.assertion.wb_AND: at time 26635000 ps
Wishbone Protocol Rule 3.35 violated
top.u_sdram32 : at time  26832.00 ns ACT  : Bank = 3 Row = 1855
top.u_sdram32 : at time  26932.00 ns BST  : Burst Terminate
top.u_sdram32 : at time  26958.00 ns READ : Bank = 3 Row = 1855, Col = 250, Data = c03b2280
READ STATUS: Burst-No:           0 Addr: 01cfffa Rxd: c03b2280
top.u_sdram32 : at time  27192.00 ns BST  : Burst Terminate
top.u_sdram32 : at time  27218.00 ns READ : Bank = 3 Row = 1855, Col = 251, Data = 10642120
READ STATUS: Burst-No:           1 Addr: 01cfffb Rxd: 10642120
top.u_sdram32 : at time  27452.00 ns BST  : Burst Terminate
top.u_sdram32 : at time  27478.00 ns READ : Bank = 3 Row = 1855, Col = 252, Data = 557845aa
READ STATUS: Burst-No:           2 Addr: 01cfffc Rxd: 557845aa
top.u_sdram32 : at time  27712.00 ns BST  : Burst Terminate
top.u_sdram32 : at time  27738.00 ns READ : Bank = 3 Row = 1855, Col = 253, Data = cecccc9d
READ STATUS: Burst-No:           3 Addr: 01cfffd Rxd: cecccc9d
top.u_sdram32 : at time  27972.00 ns BST  : Burst Terminate
top.u_sdram32 : at time  27998.00 ns READ : Bank = 3 Row = 1855, Col = 254, Data = cb203e96
READ STATUS: Burst-No:           4 Addr: 01cfffe Rxd: cb203e96
top.u_sdram32 : at time  28232.00 ns BST  : Burst Terminate
top.u_sdram32 : at time  28258.00 ns READ : Bank = 3 Row = 1855, Col = 255, Data = 8983b813
READ STATUS: Burst-No:           5 Addr: 01cffff Rxd: 8983b813
top.u_sdram32 : at time  28532.00 ns ACT  : Bank = 0 Row = 1856
top.u_sdram32 : at time  28632.00 ns BST  : Burst Terminate
top.u_sdram32 : at time  28658.00 ns READ : Bank = 0 Row = 1856, Col =   0, Data = 86bc380d
READ STATUS: Burst-No:           6 Addr: 01d0000 Rxd: 86bc380d
top.u_sdram32 : at time  28872.00 ns BST  : Burst Terminate
top.u_sdram32 : at time  28898.00 ns READ : Bank = 0 Row = 1856, Col =   1, Data = a9a7d653
READ STATUS: Burst-No:           7 Addr: 01d0001 Rxd: a9a7d653
"../tb/assertions.sv", 75: top.assertion.wb_AND: started at 28995000ps failed at 28995000ps
	Offending '$rose(whitebox_if.wb_ack_o)'
Error: "../tb/assertions.sv", 75: top.assertion.wb_AND: at time 28995000 ps
Wishbone Protocol Rule 3.35 violated
top.u_sdram32 : at time  29192.00 ns ACT  : Bank = 3 Row =  506
top.u_sdram32 : at time  29292.00 ns BST  : Burst Terminate
top.u_sdram32 : at time  29318.00 ns READ : Bank = 3 Row =  506, Col = 250, Data = 359fdd6b
READ STATUS: Burst-No:           0 Addr: 007ebfa Rxd: 359fdd6b
top.u_sdram32 : at time  29552.00 ns BST  : Burst Terminate
top.u_sdram32 : at time  29578.00 ns READ : Bank = 3 Row =  506, Col = 251, Data = eaa62ad5
READ STATUS: Burst-No:           1 Addr: 007ebfb Rxd: eaa62ad5
top.u_sdram32 : at time  29812.00 ns BST  : Burst Terminate
top.u_sdram32 : at time  29838.00 ns READ : Bank = 3 Row =  506, Col = 252, Data = 81174a02
READ STATUS: Burst-No:           2 Addr: 007ebfc Rxd: 81174a02
top.u_sdram32 : at time  30072.00 ns BST  : Burst Terminate
top.u_sdram32 : at time  30098.00 ns READ : Bank = 3 Row =  506, Col = 253, Data = d7563eae
READ STATUS: Burst-No:           3 Addr: 007ebfd Rxd: d7563eae
top.u_sdram32 : at time  30332.00 ns BST  : Burst Terminate
top.u_sdram32 : at time  30358.00 ns READ : Bank = 3 Row =  506, Col = 254, Data = 0effe91d
READ STATUS: Burst-No:           4 Addr: 007ebfe Rxd: 0effe91d
top.u_sdram32 : at time  30592.00 ns BST  : Burst Terminate
top.u_sdram32 : at time  30618.00 ns READ : Bank = 3 Row =  506, Col = 255, Data = e7c572cf
READ STATUS: Burst-No:           5 Addr: 007ebff Rxd: e7c572cf
top.u_sdram32 : at time  30892.00 ns ACT  : Bank = 0 Row =  507
top.u_sdram32 : at time  30992.00 ns BST  : Burst Terminate
top.u_sdram32 : at time  31018.00 ns READ : Bank = 0 Row =  507, Col =   0, Data = 11844923
READ STATUS: Burst-No:           6 Addr: 007ec00 Rxd: 11844923
top.u_sdram32 : at time  31232.00 ns BST  : Burst Terminate
