sdr_ctrl/trunk/verif/tb/DVEfiles/dve_gui.log
Chronologic VCS simulator copyright 1991-2017
Contains Synopsys proprietary information.
Compiler version M-2017.03_Full64; Runtime version M-2017.03_Full64;  Dec  1 10:52 2018
VCD+ Writer M-2017.03_Full64 Copyright (c) 1991-2017 by Synopsys Inc.
The design has assertions or cover properties.
The assertion browser can be used to view them. Click on the assertion toolbar button or use the menu 'Window->Panes->Assertion' to open it.
The file '/mnt/vol_NFS_Zener/WD_ESPEC/fparis/MP6134_SDRAM_Controller/sdr_ctrl/trunk/verif/tb/inter.vpd' was opened successfully.
Creating SDRC Environment
Creating address stimulus
Creating SDRC Driver
Creating SDRC Monitor
Creating SDRC Environment
Creating address stimulus
Creating SDRC Driver
Creating SDRC Monitor
"../../rtl/wb2sdrc/wb2sdrc.v", 254: top.duv.u_wb2sdrc.full_fifo_cmdread: started at 10000ps failed at 10000ps
	Offending '(!((cmdfifo_empty == 1'b1) && (cmdfifo_rd == 1'b1)))'
Error: "../../rtl/wb2sdrc/wb2sdrc.v", 254: top.duv.u_wb2sdrc.full_fifo_cmdread: at time 10000 ps
ERROR:top.duv.u_wb2sdrc.full_fifo_cmdread COMMAND FIFO READ OVERFLOW
"../../rtl/wb2sdrc/wb2sdrc.v", 312: top.duv.u_wb2sdrc.full_fifo_read: started at 10000ps failed at 10000ps
	Offending '(!((wrdatafifo_empty == 1'b1) && (wrdatafifo_rd == 1'b1)))'
Error: "../../rtl/wb2sdrc/wb2sdrc.v", 312: top.duv.u_wb2sdrc.full_fifo_read: at time 10000 ps
ERROR:top.duv.u_wb2sdrc.full_fifo_read WRITE DATA FIFO READ OVERFLOW
"../../rtl/wb2sdrc/wb2sdrc.v", 368: top.duv.u_wb2sdrc.full_fifo_readwrite_overflow: started at 10000ps failed at 10000ps
	Offending '(!((rddatafifo_full == 1'b1) && (rddatafifo_wr == 1'b1)))'
Error: "../../rtl/wb2sdrc/wb2sdrc.v", 368: top.duv.u_wb2sdrc.full_fifo_readwrite_overflow: at time 10000 ps
ERROR:top.duv.u_wb2sdrc.full_fifo_readwrite_overflow READ DATA FIFO WRITE OVERFLOW
"../../rtl/wb2sdrc/wb2sdrc.v", 312: top.duv.u_wb2sdrc.full_fifo_read: started at 30000ps failed at 30000ps
	Offending '(!((wrdatafifo_empty == 1'b1) && (wrdatafifo_rd == 1'b1)))'
Error: "../../rtl/wb2sdrc/wb2sdrc.v", 312: top.duv.u_wb2sdrc.full_fifo_read: at time 30000 ps
ERROR:top.duv.u_wb2sdrc.full_fifo_read WRITE DATA FIFO READ OVERFLOW
"../../rtl/wb2sdrc/wb2sdrc.v", 368: top.duv.u_wb2sdrc.full_fifo_readwrite_overflow: started at 30000ps failed at 30000ps
	Offending '(!((rddatafifo_full == 1'b1) && (rddatafifo_wr == 1'b1)))'
Error: "../../rtl/wb2sdrc/wb2sdrc.v", 368: top.duv.u_wb2sdrc.full_fifo_readwrite_overflow: at time 30000 ps
ERROR:top.duv.u_wb2sdrc.full_fifo_readwrite_overflow READ DATA FIFO WRITE OVERFLOW
"../../rtl/wb2sdrc/wb2sdrc.v", 254: top.duv.u_wb2sdrc.full_fifo_cmdread: started at 50000ps failed at 50000ps
	Offending '(!((cmdfifo_empty == 1'b1) && (cmdfifo_rd == 1'b1)))'
Error: "../../rtl/wb2sdrc/wb2sdrc.v", 254: top.duv.u_wb2sdrc.full_fifo_cmdread: at time 50000 ps
ERROR:top.duv.u_wb2sdrc.full_fifo_cmdread COMMAND FIFO READ OVERFLOW
"../../rtl/wb2sdrc/wb2sdrc.v", 312: top.duv.u_wb2sdrc.full_fifo_read: started at 50000ps failed at 50000ps
	Offending '(!((wrdatafifo_empty == 1'b1) && (wrdatafifo_rd == 1'b1)))'
Error: "../../rtl/wb2sdrc/wb2sdrc.v", 312: top.duv.u_wb2sdrc.full_fifo_read: at time 50000 ps
ERROR:top.duv.u_wb2sdrc.full_fifo_read WRITE DATA FIFO READ OVERFLOW
"../../rtl/wb2sdrc/wb2sdrc.v", 368: top.duv.u_wb2sdrc.full_fifo_readwrite_overflow: started at 50000ps failed at 50000ps
	Offending '(!((rddatafifo_full == 1'b1) && (rddatafifo_wr == 1'b1)))'
Error: "../../rtl/wb2sdrc/wb2sdrc.v", 368: top.duv.u_wb2sdrc.full_fifo_readwrite_overflow: at time 50000 ps
ERROR:top.duv.u_wb2sdrc.full_fifo_readwrite_overflow READ DATA FIFO WRITE OVERFLOW
"../../rtl/wb2sdrc/wb2sdrc.v", 312: top.duv.u_wb2sdrc.full_fifo_read: started at 70000ps failed at 70000ps
	Offending '(!((wrdatafifo_empty == 1'b1) && (wrdatafifo_rd == 1'b1)))'
Error: "../../rtl/wb2sdrc/wb2sdrc.v", 312: top.duv.u_wb2sdrc.full_fifo_read: at time 70000 ps
ERROR:top.duv.u_wb2sdrc.full_fifo_read WRITE DATA FIFO READ OVERFLOW
"../../rtl/wb2sdrc/wb2sdrc.v", 368: top.duv.u_wb2sdrc.full_fifo_readwrite_overflow: started at 70000ps failed at 70000ps
	Offending '(!((rddatafifo_full == 1'b1) && (rddatafifo_wr == 1'b1)))'
Error: "../../rtl/wb2sdrc/wb2sdrc.v", 368: top.duv.u_wb2sdrc.full_fifo_readwrite_overflow: at time 70000 ps
ERROR:top.duv.u_wb2sdrc.full_fifo_readwrite_overflow READ DATA FIFO WRITE OVERFLOW
"../../rtl/wb2sdrc/wb2sdrc.v", 254: top.duv.u_wb2sdrc.full_fifo_cmdread: started at 90000ps failed at 90000ps
	Offending '(!((cmdfifo_empty == 1'b1) && (cmdfifo_rd == 1'b1)))'
Error: "../../rtl/wb2sdrc/wb2sdrc.v", 254: top.duv.u_wb2sdrc.full_fifo_cmdread: at time 90000 ps
ERROR:top.duv.u_wb2sdrc.full_fifo_cmdread COMMAND FIFO READ OVERFLOW
"../../rtl/wb2sdrc/wb2sdrc.v", 312: top.duv.u_wb2sdrc.full_fifo_read: started at 90000ps failed at 90000ps
	Offending '(!((wrdatafifo_empty == 1'b1) && (wrdatafifo_rd == 1'b1)))'
Error: "../../rtl/wb2sdrc/wb2sdrc.v", 312: top.duv.u_wb2sdrc.full_fifo_read: at time 90000 ps
ERROR:top.duv.u_wb2sdrc.full_fifo_read WRITE DATA FIFO READ OVERFLOW
"../../rtl/wb2sdrc/wb2sdrc.v", 368: top.duv.u_wb2sdrc.full_fifo_readwrite_overflow: started at 90000ps failed at 90000ps
	Offending '(!((rddatafifo_full == 1'b1) && (rddatafifo_wr == 1'b1)))'
Error: "../../rtl/wb2sdrc/wb2sdrc.v", 368: top.duv.u_wb2sdrc.full_fifo_readwrite_overflow: at time 90000 ps
ERROR:top.duv.u_wb2sdrc.full_fifo_readwrite_overflow READ DATA FIFO WRITE OVERFLOW
"../../rtl/wb2sdrc/wb2sdrc.v", 312: top.duv.u_wb2sdrc.full_fifo_read: started at 110000ps failed at 110000ps
	Offending '(!((wrdatafifo_empty == 1'b1) && (wrdatafifo_rd == 1'b1)))'
Error: "../../rtl/wb2sdrc/wb2sdrc.v", 312: top.duv.u_wb2sdrc.full_fifo_read: at time 110000 ps
ERROR:top.duv.u_wb2sdrc.full_fifo_read WRITE DATA FIFO READ OVERFLOW
top.u_sdram32 : at time  10212.00 ns AREF : Auto Refresh
top.u_sdram32 : at time  10392.00 ns AREF : Auto Refresh
top.u_sdram32 : at time  10572.00 ns AREF : Auto Refresh
top.u_sdram32 : at time  10752.00 ns AREF : Auto Refresh
top.u_sdram32 : at time  10932.00 ns AREF : Auto Refresh
top.u_sdram32 : at time  11112.00 ns AREF : Auto Refresh
top.u_sdram32 : at time  11292.00 ns AREF : Auto Refresh
top.u_sdram32 : at time  11472.00 ns AREF : Auto Refresh
top.u_sdram32 : at time  11652.00 ns AREF : Auto Refresh
top.u_sdram32 : at time  11832.00 ns AREF : Auto Refresh
top.u_sdram32 : at time  12012.00 ns AREF : Auto Refresh
top.u_sdram32 : at time  12192.00 ns AREF : Auto Refresh
top.u_sdram32 : at time  12372.00 ns AREF : Auto Refresh
top.u_sdram32 : at time  12552.00 ns AREF : Auto Refresh
top.u_sdram32 : at time  12732.00 ns AREF : Auto Refresh
top.u_sdram32 : at time  12912.00 ns LMR  : Load Mode Register
top.u_sdram32 :                             CAS Latency      = 3
top.u_sdram32 :                             Burst Length     = 8
top.u_sdram32 :                             Burst Type       = Sequential
top.u_sdram32 :                             Write Burst Mode = Programmed Burst Length
-------------------------------------- 
 Case-1: Single Write/Read Case        
-------------------------------------- 
Creating address stimulus
Write Address: 002b5c2c, Burst Size:          4
Status: Burst-No:           0  Write Address: 00ad70b  WriteData: 12153524 
Status: Burst-No:           1  Write Address: 00ad70c  WriteData: c0895e81 
Status: Burst-No:           2  Write Address: 00ad70d  WriteData: 8484d609 
Status: Burst-No:           3  Write Address: 00ad70e  WriteData: b1f05663 
top.u_sdram32 : at time  13292.00 ns ACT  : Bank = 3 Row =  693
top.u_sdram32 : at time  13372.00 ns WRITE: Bank = 3 Row =  693, Col =  11, Data = 12153524
top.u_sdram32 : at time  13392.00 ns BST  : Burst Terminate
top.u_sdram32 : at time  13432.00 ns WRITE: Bank = 3 Row =  693, Col =  12, Data = c0895e81
top.u_sdram32 : at time  13452.00 ns BST  : Burst Terminate
top.u_sdram32 : at time  13492.00 ns WRITE: Bank = 3 Row =  693, Col =  13, Data = 8484d609
top.u_sdram32 : at time  13512.00 ns BST  : Burst Terminate
top.u_sdram32 : at time  13552.00 ns WRITE: Bank = 3 Row =  693, Col =  14, Data = b1f05663
top.u_sdram32 : at time  13572.00 ns BST  : Burst Terminate
"../tb/assertions.sv", 72: top.assertion.wb_AND: started at 14215000ps failed at 14215000ps
	Offending '$rose(whitebox_if.wb_ack_o)'
Error: "../tb/assertions.sv", 72: top.assertion.wb_AND: at time 14215000 ps
Wishbone Protocol Rule 3.35 violated
top.u_sdram32 : at time  14372.00 ns BST  : Burst Terminate
top.u_sdram32 : at time  14398.00 ns READ : Bank = 3 Row =  693, Col =  11, Data = 12153524
READ STATUS: Burst-No:           0 Addr: 00ad70b Rxd: 12153524
top.u_sdram32 : at time  14632.00 ns BST  : Burst Terminate
top.u_sdram32 : at time  14658.00 ns READ : Bank = 3 Row =  693, Col =  12, Data = c0895e81
READ STATUS: Burst-No:           1 Addr: 00ad70c Rxd: c0895e81
top.u_sdram32 : at time  14892.00 ns BST  : Burst Terminate
top.u_sdram32 : at time  14918.00 ns READ : Bank = 3 Row =  693, Col =  13, Data = 8484d609
READ STATUS: Burst-No:           2 Addr: 00ad70d Rxd: 8484d609
top.u_sdram32 : at time  15152.00 ns BST  : Burst Terminate
top.u_sdram32 : at time  15178.00 ns READ : Bank = 3 Row =  693, Col =  14, Data = b1f05663
READ STATUS: Burst-No:           3 Addr: 00ad70e Rxd: b1f05663
-------------------------------------- 
 End-1: Single Write/Read Case        
-------------------------------------- 
-------------------------------------- 
 Case-2: x2 Write/Read Case        
-------------------------------------- 
Creating address stimulus
Write Address: 0081b42c, Burst Size:         11
Status: Burst-No:           0  Write Address: 0206d0b  WriteData: 06b97b0d 
Status: Burst-No:           1  Write Address: 0206d0c  WriteData: 46df998d 
Status: Burst-No:           2  Write Address: 0206d0d  WriteData: b2c28465 
Status: Burst-No:           3  Write Address: 0206d0e  WriteData: 89375212 
Status: Burst-No:           4  Write Address: 0206d0f  WriteData: 00f3e301 
top.u_sdram32 : at time  15472.00 ns ACT  : Bank = 1 Row =   27
top.u_sdram32 : at time  15552.00 ns WRITE: Bank = 1 Row =   27, Col =  11, Data = 06b97b0d
top.u_sdram32 : at time  15572.00 ns BST  : Burst Terminate
top.u_sdram32 : at time  15612.00 ns WRITE: Bank = 1 Row =   27, Col =  12, Data = 46df998d
Status: Burst-No:           5  Write Address: 0206d10  WriteData: 06d7cd0d 
top.u_sdram32 : at time  15632.00 ns BST  : Burst Terminate
top.u_sdram32 : at time  15672.00 ns WRITE: Bank = 1 Row =   27, Col =  13, Data = b2c28465
Status: Burst-No:           6  Write Address: 0206d11  WriteData: 3b23f176 
top.u_sdram32 : at time  15692.00 ns BST  : Burst Terminate
top.u_sdram32 : at time  15732.00 ns WRITE: Bank = 1 Row =   27, Col =  14, Data = 89375212
Status: Burst-No:           7  Write Address: 0206d12  WriteData: 1e8dcd3d 
top.u_sdram32 : at time  15752.00 ns BST  : Burst Terminate
top.u_sdram32 : at time  15792.00 ns WRITE: Bank = 1 Row =   27, Col =  15, Data = 00f3e301
Status: Burst-No:           8  Write Address: 0206d13  WriteData: 76d457ed 
top.u_sdram32 : at time  15812.00 ns BST  : Burst Terminate
top.u_sdram32 : at time  15852.00 ns WRITE: Bank = 1 Row =   27, Col =  16, Data = 06d7cd0d
Status: Burst-No:           9  Write Address: 0206d14  WriteData: 462df78c 
top.u_sdram32 : at time  15872.00 ns BST  : Burst Terminate
top.u_sdram32 : at time  15912.00 ns WRITE: Bank = 1 Row =   27, Col =  17, Data = 3b23f176
Status: Burst-No:          10  Write Address: 0206d15  WriteData: 7cfde9f9 
top.u_sdram32 : at time  15932.00 ns BST  : Burst Terminate
"../tb/assertions.sv", 72: top.assertion.wb_AND: started at 15935000ps failed at 15935000ps
	Offending '$rose(whitebox_if.wb_ack_o)'
Error: "../tb/assertions.sv", 72: top.assertion.wb_AND: at time 15935000 ps
Wishbone Protocol Rule 3.35 violated
top.u_sdram32 : at time  15972.00 ns WRITE: Bank = 1 Row =   27, Col =  18, Data = 1e8dcd3d
top.u_sdram32 : at time  15992.00 ns BST  : Burst Terminate
top.u_sdram32 : at time  16032.00 ns WRITE: Bank = 1 Row =   27, Col =  19, Data = 76d457ed
top.u_sdram32 : at time  16052.00 ns BST  : Burst Terminate
top.u_sdram32 : at time  16092.00 ns WRITE: Bank = 1 Row =   27, Col =  20, Data = 462df78c
top.u_sdram32 : at time  16112.00 ns BST  : Burst Terminate
top.u_sdram32 : at time  16152.00 ns WRITE: Bank = 1 Row =   27, Col =  21, Data = 7cfde9f9
top.u_sdram32 : at time  16172.00 ns BST  : Burst Terminate
top.u_sdram32 : at time  16232.00 ns BST  : Burst Terminate
top.u_sdram32 : at time  16258.00 ns READ : Bank = 1 Row =   27, Col =  11, Data = 06b97b0d
READ STATUS: Burst-No:           0 Addr: 0206d0b Rxd: 06b97b0d
top.u_sdram32 : at time  16492.00 ns BST  : Burst Terminate
top.u_sdram32 : at time  16518.00 ns READ : Bank = 1 Row =   27, Col =  12, Data = 46df998d
READ STATUS: Burst-No:           1 Addr: 0206d0c Rxd: 46df998d
top.u_sdram32 : at time  16752.00 ns BST  : Burst Terminate
top.u_sdram32 : at time  16778.00 ns READ : Bank = 1 Row =   27, Col =  13, Data = b2c28465
READ STATUS: Burst-No:           2 Addr: 0206d0d Rxd: b2c28465
top.u_sdram32 : at time  17012.00 ns BST  : Burst Terminate
top.u_sdram32 : at time  17038.00 ns READ : Bank = 1 Row =   27, Col =  14, Data = 89375212
READ STATUS: Burst-No:           3 Addr: 0206d0e Rxd: 89375212
top.u_sdram32 : at time  17272.00 ns BST  : Burst Terminate
top.u_sdram32 : at time  17298.00 ns READ : Bank = 1 Row =   27, Col =  15, Data = 00f3e301
READ STATUS: Burst-No:           4 Addr: 0206d0f Rxd: 00f3e301
top.u_sdram32 : at time  17532.00 ns BST  : Burst Terminate
top.u_sdram32 : at time  17558.00 ns READ : Bank = 1 Row =   27, Col =  16, Data = 06d7cd0d
READ STATUS: Burst-No:           5 Addr: 0206d10 Rxd: 06d7cd0d
top.u_sdram32 : at time  17792.00 ns BST  : Burst Terminate
top.u_sdram32 : at time  17818.00 ns READ : Bank = 1 Row =   27, Col =  17, Data = 3b23f176
READ STATUS: Burst-No:           6 Addr: 0206d11 Rxd: 3b23f176
top.u_sdram32 : at time  18052.00 ns BST  : Burst Terminate
top.u_sdram32 : at time  18078.00 ns READ : Bank = 1 Row =   27, Col =  18, Data = 1e8dcd3d
READ STATUS: Burst-No:           7 Addr: 0206d12 Rxd: 1e8dcd3d
top.u_sdram32 : at time  18312.00 ns BST  : Burst Terminate
top.u_sdram32 : at time  18338.00 ns READ : Bank = 1 Row =   27, Col =  19, Data = 76d457ed
READ STATUS: Burst-No:           8 Addr: 0206d13 Rxd: 76d457ed
top.u_sdram32 : at time  18572.00 ns BST  : Burst Terminate
top.u_sdram32 : at time  18598.00 ns READ : Bank = 1 Row =   27, Col =  20, Data = 462df78c
READ STATUS: Burst-No:           9 Addr: 0206d14 Rxd: 462df78c
top.u_sdram32 : at time  18832.00 ns BST  : Burst Terminate
top.u_sdram32 : at time  18858.00 ns READ : Bank = 1 Row =   27, Col =  21, Data = 7cfde9f9
READ STATUS: Burst-No:          10 Addr: 0206d15 Rxd: 7cfde9f9
Creating address stimulus
Write Address: 0066696d, Burst Size:         12
Status: Burst-No:           0  Write Address: 0199a5b  WriteData: e33724c6 
Status: Burst-No:           1  Write Address: 0199a5c  WriteData: e2f784c5 
Status: Burst-No:           2  Write Address: 0199a5d  WriteData: d513d2aa 
Status: Burst-No:           3  Write Address: 0199a5e  WriteData: 72aff7e5 
Status: Burst-No:           4  Write Address: 0199a5f  WriteData: bbd27277 
top.u_sdram32 : at time  19152.00 ns ACT  : Bank = 2 Row = 1638
top.u_sdram32 : at time  19232.00 ns WRITE: Bank = 2 Row = 1638, Col =  91, Data = e33724c6
top.u_sdram32 : at time  19252.00 ns BST  : Burst Terminate
top.u_sdram32 : at time  19292.00 ns WRITE: Bank = 2 Row = 1638, Col =  92, Data = e2f784c5
Status: Burst-No:           5  Write Address: 0199a60  WriteData: 8932d612 
top.u_sdram32 : at time  19312.00 ns BST  : Burst Terminate
top.u_sdram32 : at time  19352.00 ns WRITE: Bank = 2 Row = 1638, Col =  93, Data = d513d2aa
Status: Burst-No:           6  Write Address: 0199a61  WriteData: 47ecdb8f 
top.u_sdram32 : at time  19372.00 ns BST  : Burst Terminate
top.u_sdram32 : at time  19412.00 ns WRITE: Bank = 2 Row = 1638, Col =  94, Data = 72aff7e5
Status: Burst-No:           7  Write Address: 0199a62  WriteData: 793069f2 
top.u_sdram32 : at time  19432.00 ns BST  : Burst Terminate
top.u_sdram32 : at time  19472.00 ns WRITE: Bank = 2 Row = 1638, Col =  95, Data = bbd27277
Status: Burst-No:           8  Write Address: 0199a63  WriteData: e77696ce 
top.u_sdram32 : at time  19492.00 ns BST  : Burst Terminate
top.u_sdram32 : at time  19532.00 ns WRITE: Bank = 2 Row = 1638, Col =  96, Data = 8932d612
Status: Burst-No:           9  Write Address: 0199a64  WriteData: f4007ae8 
top.u_sdram32 : at time  19552.00 ns BST  : Burst Terminate
top.u_sdram32 : at time  19592.00 ns WRITE: Bank = 2 Row = 1638, Col =  97, Data = 47ecdb8f
Status: Burst-No:          10  Write Address: 0199a65  WriteData: e2ca4ec5 
top.u_sdram32 : at time  19612.00 ns BST  : Burst Terminate
top.u_sdram32 : at time  19652.00 ns WRITE: Bank = 2 Row = 1638, Col =  98, Data = 793069f2
Status: Burst-No:          11  Write Address: 0199a66  WriteData: 2e58495c 
top.u_sdram32 : at time  19672.00 ns BST  : Burst Terminate
"../tb/assertions.sv", 72: top.assertion.wb_AND: started at 19675000ps failed at 19675000ps
	Offending '$rose(whitebox_if.wb_ack_o)'
Error: "../tb/assertions.sv", 72: top.assertion.wb_AND: at time 19675000 ps
Wishbone Protocol Rule 3.35 violated
top.u_sdram32 : at time  19712.00 ns WRITE: Bank = 2 Row = 1638, Col =  99, Data = e77696ce
top.u_sdram32 : at time  19732.00 ns BST  : Burst Terminate
top.u_sdram32 : at time  19772.00 ns WRITE: Bank = 2 Row = 1638, Col = 100, Data = f4007ae8
top.u_sdram32 : at time  19792.00 ns BST  : Burst Terminate
top.u_sdram32 : at time  19832.00 ns WRITE: Bank = 2 Row = 1638, Col = 101, Data = e2ca4ec5
top.u_sdram32 : at time  19852.00 ns BST  : Burst Terminate
top.u_sdram32 : at time  19892.00 ns WRITE: Bank = 2 Row = 1638, Col = 102, Data = 2e58495c
top.u_sdram32 : at time  19912.00 ns BST  : Burst Terminate
top.u_sdram32 : at time  19972.00 ns BST  : Burst Terminate
top.u_sdram32 : at time  19998.00 ns READ : Bank = 2 Row = 1638, Col =  91, Data = e33724c6
READ STATUS: Burst-No:           0 Addr: 0199a5b Rxd: e33724c6
top.u_sdram32 : at time  20232.00 ns BST  : Burst Terminate
top.u_sdram32 : at time  20258.00 ns READ : Bank = 2 Row = 1638, Col =  92, Data = e2f784c5
READ STATUS: Burst-No:           1 Addr: 0199a5c Rxd: e2f784c5
top.u_sdram32 : at time  20492.00 ns BST  : Burst Terminate
top.u_sdram32 : at time  20518.00 ns READ : Bank = 2 Row = 1638, Col =  93, Data = d513d2aa
READ STATUS: Burst-No:           2 Addr: 0199a5d Rxd: d513d2aa
top.u_sdram32 : at time  20752.00 ns BST  : Burst Terminate
top.u_sdram32 : at time  20778.00 ns READ : Bank = 2 Row = 1638, Col =  94, Data = 72aff7e5
READ STATUS: Burst-No:           3 Addr: 0199a5e Rxd: 72aff7e5
top.u_sdram32 : at time  21012.00 ns BST  : Burst Terminate
top.u_sdram32 : at time  21038.00 ns READ : Bank = 2 Row = 1638, Col =  95, Data = bbd27277
READ STATUS: Burst-No:           4 Addr: 0199a5f Rxd: bbd27277
top.u_sdram32 : at time  21272.00 ns BST  : Burst Terminate
top.u_sdram32 : at time  21298.00 ns READ : Bank = 2 Row = 1638, Col =  96, Data = 8932d612
READ STATUS: Burst-No:           5 Addr: 0199a60 Rxd: 8932d612
top.u_sdram32 : at time  21532.00 ns BST  : Burst Terminate
top.u_sdram32 : at time  21558.00 ns READ : Bank = 2 Row = 1638, Col =  97, Data = 47ecdb8f
READ STATUS: Burst-No:           6 Addr: 0199a61 Rxd: 47ecdb8f
top.u_sdram32 : at time  21792.00 ns BST  : Burst Terminate
top.u_sdram32 : at time  21818.00 ns READ : Bank = 2 Row = 1638, Col =  98, Data = 793069f2
READ STATUS: Burst-No:           7 Addr: 0199a62 Rxd: 793069f2
top.u_sdram32 : at time  22052.00 ns BST  : Burst Terminate
top.u_sdram32 : at time  22078.00 ns READ : Bank = 2 Row = 1638, Col =  99, Data = e77696ce
READ STATUS: Burst-No:           8 Addr: 0199a63 Rxd: e77696ce
top.u_sdram32 : at time  22312.00 ns BST  : Burst Terminate
top.u_sdram32 : at time  22338.00 ns READ : Bank = 2 Row = 1638, Col = 100, Data = f4007ae8
READ STATUS: Burst-No:           9 Addr: 0199a64 Rxd: f4007ae8
top.u_sdram32 : at time  22572.00 ns BST  : Burst Terminate
top.u_sdram32 : at time  22598.00 ns READ : Bank = 2 Row = 1638, Col = 101, Data = e2ca4ec5
READ STATUS: Burst-No:          10 Addr: 0199a65 Rxd: e2ca4ec5
top.u_sdram32 : at time  22832.00 ns BST  : Burst Terminate
top.u_sdram32 : at time  22858.00 ns READ : Bank = 2 Row = 1638, Col = 102, Data = 2e58495c
READ STATUS: Burst-No:          11 Addr: 0199a66 Rxd: 2e58495c
-------------------------------------- 
 End-2: x2 Write/Read Case        
-------------------------------------- 
----------------------------------------
 Case-3 Create a Page Cross Over        
----------------------------------------
Write Address: 00000ff0, Burst Size:          8
Status: Burst-No:           0  Write Address: 00003fc  WriteData: de8e28bd 
Status: Burst-No:           1  Write Address: 00003fd  WriteData: 96ab582d 
Status: Burst-No:           2  Write Address: 00003fe  WriteData: b2a72665 
Status: Burst-No:           3  Write Address: 00003ff  WriteData: b1ef6263 
Status: Burst-No:           4  Write Address: 0000400  WriteData: 0573870a 
top.u_sdram32 : at time  23152.00 ns ACT  : Bank = 3 Row =    0
top.u_sdram32 : at time  23232.00 ns WRITE: Bank = 3 Row =    0, Col = 252, Data = de8e28bd
top.u_sdram32 : at time  23252.00 ns BST  : Burst Terminate
top.u_sdram32 : at time  23292.00 ns WRITE: Bank = 3 Row =    0, Col = 253, Data = 96ab582d
Status: Burst-No:           5  Write Address: 0000401  WriteData: c03b2280 
top.u_sdram32 : at time  23312.00 ns BST  : Burst Terminate
top.u_sdram32 : at time  23352.00 ns WRITE: Bank = 3 Row =    0, Col = 254, Data = b2a72665
Status: Burst-No:           6  Write Address: 0000402  WriteData: 10642120 
top.u_sdram32 : at time  23372.00 ns BST  : Burst Terminate
top.u_sdram32 : at time  23412.00 ns WRITE: Bank = 3 Row =    0, Col = 255, Data = b1ef6263
Status: Burst-No:           7  Write Address: 0000403  WriteData: 557845aa 
Write Address: 00010ff4, Burst Size:         15
top.u_sdram32 : at time  23432.00 ns BST  : Burst Terminate
Status: Burst-No:           0  Write Address: 00043fd  WriteData: cecccc9d 
top.u_sdram32 : at time  23552.00 ns ACT  : Bank = 0 Row =    1
top.u_sdram32 : at time  23632.00 ns WRITE: Bank = 0 Row =    1, Col =   0, Data = 0573870a
top.u_sdram32 : at time  23652.00 ns BST  : Burst Terminate
top.u_sdram32 : at time  23672.00 ns WRITE: Bank = 0 Row =    1, Col =   1, Data = c03b2280
top.u_sdram32 : at time  23692.00 ns BST  : Burst Terminate
Status: Burst-No:           1  Write Address: 00043fe  WriteData: cb203e96 
top.u_sdram32 : at time  23712.00 ns WRITE: Bank = 0 Row =    1, Col =   2, Data = 10642120
top.u_sdram32 : at time  23732.00 ns BST  : Burst Terminate
Status: Burst-No:           2  Write Address: 00043ff  WriteData: 8983b813 
top.u_sdram32 : at time  23752.00 ns WRITE: Bank = 0 Row =    1, Col =   3, Data = 557845aa
top.u_sdram32 : at time  23772.00 ns BST  : Burst Terminate
Status: Burst-No:           3  Write Address: 0004400  WriteData: 86bc380d 
Status: Burst-No:           4  Write Address: 0004401  WriteData: a9a7d653 
top.u_sdram32 : at time  23892.00 ns ACT  : Bank = 3 Row =   16
top.u_sdram32 : at time  23972.00 ns WRITE: Bank = 3 Row =   16, Col = 253, Data = cecccc9d
top.u_sdram32 : at time  23992.00 ns BST  : Burst Terminate
top.u_sdram32 : at time  24032.00 ns WRITE: Bank = 3 Row =   16, Col = 254, Data = cb203e96
Status: Burst-No:           5  Write Address: 0004402  WriteData: 359fdd6b 
top.u_sdram32 : at time  24052.00 ns BST  : Burst Terminate
top.u_sdram32 : at time  24092.00 ns WRITE: Bank = 3 Row =   16, Col = 255, Data = 8983b813
Status: Burst-No:           6  Write Address: 0004403  WriteData: eaa62ad5 
top.u_sdram32 : at time  24112.00 ns BST  : Burst Terminate
Status: Burst-No:           7  Write Address: 0004404  WriteData: 81174a02 
top.u_sdram32 : at time  24232.00 ns ACT  : Bank = 0 Row =   17
top.u_sdram32 : at time  24312.00 ns WRITE: Bank = 0 Row =   17, Col =   0, Data = 86bc380d
top.u_sdram32 : at time  24332.00 ns BST  : Burst Terminate
top.u_sdram32 : at time  24352.00 ns WRITE: Bank = 0 Row =   17, Col =   1, Data = a9a7d653
top.u_sdram32 : at time  24372.00 ns BST  : Burst Terminate
Status: Burst-No:           8  Write Address: 0004405  WriteData: d7563eae 
top.u_sdram32 : at time  24392.00 ns WRITE: Bank = 0 Row =   17, Col =   2, Data = 359fdd6b
top.u_sdram32 : at time  24412.00 ns BST  : Burst Terminate
Status: Burst-No:           9  Write Address: 0004406  WriteData: 0effe91d 
top.u_sdram32 : at time  24432.00 ns WRITE: Bank = 0 Row =   17, Col =   3, Data = eaa62ad5
top.u_sdram32 : at time  24452.00 ns BST  : Burst Terminate
Status: Burst-No:          10  Write Address: 0004407  WriteData: e7c572cf 
top.u_sdram32 : at time  24472.00 ns WRITE: Bank = 0 Row =   17, Col =   4, Data = 81174a02
top.u_sdram32 : at time  24492.00 ns BST  : Burst Terminate
Status: Burst-No:          11  Write Address: 0004408  WriteData: 11844923 
top.u_sdram32 : at time  24512.00 ns WRITE: Bank = 0 Row =   17, Col =   5, Data = d7563eae
top.u_sdram32 : at time  24532.00 ns BST  : Burst Terminate
Status: Burst-No:          12  Write Address: 0004409  WriteData: 0509650a 
top.u_sdram32 : at time  24552.00 ns WRITE: Bank = 0 Row =   17, Col =   6, Data = 0effe91d
top.u_sdram32 : at time  24572.00 ns BST  : Burst Terminate
Status: Burst-No:          13  Write Address: 000440a  WriteData: e5730aca 
top.u_sdram32 : at time  24592.00 ns WRITE: Bank = 0 Row =   17, Col =   7, Data = e7c572cf
top.u_sdram32 : at time  24612.00 ns BST  : Burst Terminate
Status: Burst-No:          14  Write Address: 000440b  WriteData: 9e314c3c 
Write Address: 00020ff8, Burst Size:         15
top.u_sdram32 : at time  24632.00 ns WRITE: Bank = 0 Row =   17, Col =   8, Data = 11844923
top.u_sdram32 : at time  24652.00 ns BST  : Burst Terminate
Status: Burst-No:           0  Write Address: 00083fe  WriteData: 7968bdf2 
top.u_sdram32 : at time  24672.00 ns WRITE: Bank = 0 Row =   17, Col =   9, Data = 0509650a
top.u_sdram32 : at time  24692.00 ns BST  : Burst Terminate
Status: Burst-No:           1  Write Address: 00083ff  WriteData: 452e618a 
top.u_sdram32 : at time  24712.00 ns WRITE: Bank = 0 Row =   17, Col =  10, Data = e5730aca
top.u_sdram32 : at time  24732.00 ns BST  : Burst Terminate
Status: Burst-No:           2  Write Address: 0008400  WriteData: 20c4b341 
top.u_sdram32 : at time  24752.00 ns WRITE: Bank = 0 Row =   17, Col =  11, Data = 9e314c3c
top.u_sdram32 : at time  24772.00 ns BST  : Burst Terminate
Status: Burst-No:           3  Write Address: 0008401  WriteData: ec4b34d8 
Status: Burst-No:           4  Write Address: 0008402  WriteData: 3c20f378 
top.u_sdram32 : at time  24892.00 ns ACT  : Bank = 3 Row =   32
top.u_sdram32 : at time  24972.00 ns WRITE: Bank = 3 Row =   32, Col = 254, Data = 7968bdf2
top.u_sdram32 : at time  24992.00 ns BST  : Burst Terminate
top.u_sdram32 : at time  25032.00 ns WRITE: Bank = 3 Row =   32, Col = 255, Data = 452e618a
