Ejms/fifo_cov/bk/fifo_sc_verilog_example4/verilog.vcd
$date
	Mon Jun 18 20:34:31 2018
$end
$version
	Icarus Verilog
$end
$timescale
	1ns
$end
$scope module tb $end
$var wire 8 ! data_out [7:0] $end
$var wire 1 " empty $end
$var wire 1 # full $end
$var reg 1 $ clk $end
$var reg 8 % data_in [7:0] $end
$var reg 1 & rd_cs $end
$var reg 1 ' rd_en $end
$var reg 1 ( rst $end
$var reg 1 ) wr_cs $end
$var reg 1 * wr_en $end
$scope module dut $end
$var wire 1 + clk $end
$var wire 8 , data_in [7:0] $end
$var wire 8 - data_ram [7:0] $end
$var wire 1 " empty $end
$var wire 1 # full $end
$var wire 1 . rd_cs $end
$var wire 1 / rd_en $end
$var wire 1 0 rst $end
$var wire 1 1 wr_cs $end
$var wire 1 2 wr_en $end
$var reg 8 3 data_out [7:0] $end
$var reg 8 4 rd_pointer [7:0] $end
$var reg 9 5 status_cnt [8:0] $end
$var reg 8 6 wr_pointer [7:0] $end
$scope module DP_RAM $end
$var wire 8 7 address_0 [7:0] $end
$var wire 8 8 address_1 [7:0] $end
$var wire 1 1 cs_0 $end
$var wire 1 . cs_1 $end
$var wire 8 9 data_0 [7:0] $end
$var wire 8 : data_1 [7:0] $end
$var wire 1 ; oe_0 $end
$var wire 1 / oe_1 $end
$var wire 1 2 we_0 $end
$var wire 1 < we_1 $end
$var reg 8 = data_0_out [7:0] $end
$var reg 8 > data_1_out [7:0] $end
$scope begin MEM_WRITE $end
$upscope $end
$scope begin MEM_READ_0 $end
$upscope $end
$scope begin MEM_READ_1 $end
$upscope $end
$upscope $end
$scope begin WRITE_POINTER $end
$upscope $end
$scope begin READ_POINTER $end
$upscope $end
$scope begin READ_DATA $end
$upscope $end
$scope begin STATUS_COUNTER $end
$upscope $end
$upscope $end
$upscope $end
$enddefinitions $end
#0
$dumpvars
b0 >
b0 =
0<
0;
bz :
b0 9
b0 8
b0 7
b0 6
b0 5
b0 4
b0 3
02
01
10
0/
0.
bz -
b0 ,
0+
0*
0)
1(
0'
0&
b0 %
0$
0#
1"
b0 !
$end
#1
1$
1+
#2
0$
0+
#3
1$
1+
#4
0$
0+
#5
1$
1+
#6
0$
0+
#7
1$
1+
#8
0$
0+
#9
1$
1+
#10
0$
0+
#11
1$
1+
#12
0$
0+
#13
1$
1+
#14
0$
0+
#15
1$
1+
#16
0$
0+
#17
1$
1+
#18
0$
0+
#19
1$
1&
1.
1)
11
0(
00
1+
#20
0$
0+
#21
1$
1+
#22
0$
0+
#23
1$
1+
#24
0$
0+
#25
1$
1+
#26
0$
0+
#27
1$
1+
#28
0$
0+
#29
1$
1+
#30
0$
0+
#31
1$
1+
#32
0$
0+
#33
1$
1+
#34
0$
0+
#35
1$
1+
#36
0$
0+
#37
1$
1+
#38
0$
0+
#39
b1 5
0"
b1 6
b1 7
1$
1*
12
b1100 %
b1100 ,
b1100 9
1+
#40
0$
0+
#41
1$
0*
02
b0 %
b0 ,
b0 9
1+
#42
0$
0+
#43
1$
1+
#44
0$
0+
#45
1$
1+
#46
0$
0+
#47
1$
1+
#48
0$
0+
#49
1$
1+
#50
0$
0+
#51
1$
1+
#52
0$
0+
#53
1$
1+
#54
0$
0+
#55
1$
1+
#56
0$
0+
#57
1$
1+
#58
0$
0+
#59
1$
1+
#60
0$
0+
#61
b10 5
b10 6
b10 7
1$
1*
12
b1101 %
b1101 ,
b1101 9
1+
#62
0$
0+
#63
1$
0*
02
b0 %
b0 ,
b0 9
1+
#64
0$
0+
#65
1$
1+
#66
0$
0+
#67
1$
1+
#68
0$
0+
#69
1$
1+
#70
0$
0+
#71
1$
1+
#72
0$
0+
#73
1$
1+
#74
0$
0+
#75
1$
1+
#76
0$
0+
#77
1$
1+
#78
0$
0+
#79
1$
1+
#80
0$
0+
#81
1$
1+
#82
0$
0+
#83
b11 5
b11 6
b11 7
1$
1*
12
b1100 %
b1100 ,
b1100 9
1+
#84
0$
0+
#85
1$
0*
02
b0 %
b0 ,
b0 9
1+
#86
0$
0+
#87
1$
1+
#88
0$
0+
#89
1$
1+
#90
0$
0+
#91
1$
1+
#92
0$
0+
#93
1$
1+
#94
0$
0+
#95
1$
1+
#96
0$
0+
#97
1$
1+
#98
0$
0+
#99
1$
1+
#100
0$
0+
#101
1$
1+
#102
0$
0+
#103
1$
1+
#104
0$
0+
#105
b100 5
b100 6
b100 7
1$
1*
12
b1100 %
b1100 ,
b1100 9
1+
#106
0$
0+
#107
1$
0*
02
b0 %
b0 ,
b0 9
1+
#108
0$
0+
#109
1$
1+
#110
0$
0+
#111
1$
1+
#112
0$
0+
#113
1$
1+
#114
0$
0+
#115
1$
1+
#116
0$
0+
#117
1$
1+
#118
0$
0+
#119
1$
1+
#120
0$
0+
#121
1$
1+
#122
0$
0+
#123
1$
1+
#124
0$
0+
#125
1$
1+
#126
0$
0+
#127
b101 5
b101 6
b101 7
1$
1*
12
b1101 %
b1101 ,
b1101 9
1+
#128
0$
0+
#129
1$
0*
02
b0 %
b0 ,
b0 9
1+
#130
0$
0+
#131
1$
1+
#132
0$
0+
#133
1$
1+
#134
0$
0+
#135
1$
1+
#136
0$
0+
#137
1$
1+
#138
0$
0+
#139
1$
1+
#140
0$
0+
#141
1$
1+
#142
0$
0+
#143
1$
1+
#144
0$
0+
#145
1$
1+
#146
0$
0+
#147
1$
1+
#148
0$
0+
#149
b110 5
b110 6
b110 7
1$
1*
12
b1101 %
b1101 ,
b1101 9
1+
#150
0$
0+
#151
1$
0*
02
b0 %
b0 ,
b0 9
1+
#152
0$
0+
#153
1$
1+
#154
0$
0+
#155
1$
1+
#156
0$
0+
#157
1$
1+
#158
0$
0+
#159
1$
1+
#160
0$
0+
#161
1$
1+
#162
0$
0+
#163
1$
1+
#164
0$
0+
#165
1$
1+
#166
0$
0+
#167
1$
1+
#168
0$
0+
#169
1$
1+
#170
0$
0+
#171
b111 5
b111 6
b111 7
1$
1*
12
b1011 %
b1011 ,
b1011 9
1+
#172
0$
0+
#173
1$
0*
02
b0 %
b0 ,
b0 9
1+
#174
0$
0+
#175
1$
1+
#176
0$
0+
#177
1$
1+
#178
0$
0+
#179
1$
1+
#180
0$
0+
#181
1$
1+
#182
0$
0+
#183
1$
1+
#184
0$
0+
#185
1$
1+
#186
0$
0+
#187
1$
1+
#188
0$
0+
#189
1$
1+
#190
0$
0+
#191
1$
1+
#192
0$
0+
#193
b1000 5
b1000 6
b1000 7
1$
1*
12
b1110 %
b1110 ,
b1110 9
1+
#194
0$
0+
#195
1$
0*
02
b0 %
b0 ,
b0 9
1+
#196
0$
0+
#197
1$
1+
#198
0$
0+
#199
1$
1+
#200
0$
0+
#201
1$
1+
#202
0$
0+
#203
1$
1+
#204
0$
0+
#205
1$
1+
#206
0$
0+
#207
1$
1+
#208
0$
0+
#209
1$
1+
#210
0$
0+
#211
1$
1+
#212
0$
0+
#213
1$
1+
#214
0$
0+
#215
b1001 5
b1001 6
b1001 7
1$
1*
12
b1110 %
b1110 ,
b1110 9
1+
#216
0$
0+
#217
1$
0*
02
b0 %
b0 ,
b0 9
1+
#218
0$
0+
#219
1$
1+
#220
0$
0+
#221
1$
1+
#222
0$
0+
#223
1$
1+
#224
0$
0+
#225
1$
1+
#226
0$
0+
#227
1$
1+
#228
0$
0+
#229
1$
1+
#230
0$
0+
#231
1$
1+
#232
0$
0+
#233
1$
1+
#234
0$
0+
#235
1$
1+
#236
0$
0+
#237
b1010 5
b1010 6
b1010 7
1$
1*
12
b1110 %
b1110 ,
b1110 9
1+
#238
0$
0+
#239
1$
0*
02
b0 %
b0 ,
b0 9
1+
#240
0$
0+
#241
1$
1+
#242
0$
0+
#243
1$
1+
#244
0$
0+
#245
1$
1+
#246
0$
0+
#247
1$
1+
#248
0$
0+
#249
1$
1+
#250
0$
0+
#251
1$
1+
#252
0$
0+
#253
1$
1+
#254
0$
0+
#255
1$
1+
#256
0$
0+
#257
1$
1+
#258
0$
0+
#259
1$
1+
#260
0$
0+
#261
1$
1+
#262
0$
0+
#263
1$
1+
#264
0$
0+
#265
1$
1+
#266
0$
0+
#267
1$
1+
#268
0$
0+
#269
1$
1+
#270
0$
0+
#271
1$
1+
#272
0$
0+
#273
1$
1+
#274
0$
0+
#275
1$
1+
#276
0$
0+
#277
1$
1+
#278
0$
0+
#279
b1101 >
b1001 5
bz 3
bz !
b1 4
b1 8
b1101 -
b1101 :
1$
1'
1/
1+
#280
0$
0+
#281
b0 >
bz -
bz :
1$
0'
0/
1+
#282
0$
0+
#283
1$
1+
#284
0$
0+
#285
1$
1+
#286
0$
0+
#287
1$
1+
#288
0$
0+
#289
1$
1+
#290
0$
0+
#291
1$
1+
#292
0$
0+
#293
1$
1+
#294
0$
0+
#295
1$
1+
#296
0$
0+
#297
1$
1+
#298
0$
0+
#299
1$
1+
#300
0$
0+
#301
b1100 >
b1000 5
b10 4
b10 8
b1100 -
b1100 :
1$
1'
1/
1+
#302
0$
0+
#303
b0 >
bz -
bz :
1$
0'
0/
1+
#304
0$
0+
#305
1$
1+
#306
0$
0+
#307
1$
1+
#308
0$
0+
#309
1$
1+
#310
0$
0+
#311
1$
1+
#312
0$
0+
#313
1$
1+
#314
0$
0+
#315
1$
1+
#316
0$
0+
#317
1$
1+
#318
0$
0+
#319
1$
1+
#320
0$
0+
#321
1$
1+
#322
0$
0+
#323
b1100 >
b111 5
b11 4
b11 8
b1100 -
b1100 :
1$
1'
1/
1+
#324
0$
0+
#325
b0 >
bz -
bz :
1$
0'
0/
1+
#326
0$
0+
#327
1$
1+
#328
0$
0+
#329
1$
1+
#330
0$
0+
#331
1$
1+
#332
0$
0+
#333
1$
1+
#334
0$
0+
#335
1$
1+
#336
0$
0+
#337
1$
1+
#338
0$
0+
#339
1$
1+
#340
0$
0+
#341
1$
1+
#342
0$
0+
#343
1$
1+
#344
0$
0+
#345
b1101 >
b110 5
b100 4
b100 8
b1101 -
b1101 :
1$
1'
1/
1+
#346
0$
0+
#347
b0 >
bz -
bz :
1$
0'
0/
1+
#348
0$
0+
#349
1$
1+
#350
0$
0+
#351
1$
1+
#352
0$
0+
#353
1$
1+
#354
0$
0+
#355
1$
1+
#356
0$
0+
#357
1$
1+
#358
0$
0+
#359
1$
1+
#360
0$
0+
#361
1$
1+
#362
0$
0+
#363
1$
1+
#364
0$
0+
#365
1$
1+
#366
0$
0+
#367
b1101 >
b101 5
b101 4
b101 8
b1101 -
b1101 :
1$
1'
1/
1+
#368
0$
0+
#369
b0 >
bz -
bz :
1$
0'
0/
1+
#370
0$
0+
#371
1$
1+
#372
0$
0+
#373
1$
1+
#374
0$
0+
#375
1$
1+
#376
0$
0+
#377
1$
1+
#378
0$
0+
#379
1$
1+
#380
0$
0+
#381
1$
1+
#382
0$
0+
#383
1$
1+
#384
0$
0+
#385
1$
1+
#386
0$
0+
#387
1$
1+
#388
0$
0+
#389
b1011 >
b100 5
b110 4
b110 8
b1011 -
b1011 :
1$
1'
1/
1+
#390
0$
0+
#391
b0 >
bz -
bz :
1$
0'
0/
1+
#392
0$
0+
#393
1$
1+
#394
0$
0+
#395
1$
1+
#396
0$
0+
#397
1$
1+
#398
0$
0+
#399
1$
1+
#400
0$
0+
#401
1$
1+
#402
0$
0+
#403
1$
1+
#404
0$
0+
#405
1$
1+
#406
0$
0+
#407
1$
1+
#408
0$
0+
#409
1$
1+
#410
0$
0+
#411
b1110 >
b11 5
b111 4
b111 8
b1110 -
b1110 :
1$
1'
1/
1+
#412
0$
0+
#413
b0 >
bz -
bz :
1$
0'
0/
1+
#414
0$
0+
#415
1$
1+
#416
0$
0+
#417
1$
1+
#418
0$
0+
#419
1$
1+
#420
0$
0+
#421
1$
1+
#422
0$
0+
#423
1$
1+
#424
0$
0+
#425
1$
1+
#426
0$
0+
#427
1$
1+
#428
0$
0+
#429
1$
1+
#430
0$
0+
#431
1$
1+
#432
0$
0+
#433
b1110 >
b10 5
b1000 4
b1000 8
b1110 -
b1110 :
1$
1'
1/
1+
#434
0$
0+
#435
b0 >
bz -
bz :
1$
0'
0/
1+
#436
0$
0+
#437
1$
1+
#438
0$
0+
#439
1$
1+
#440
0$
0+
#441
1$
1+
#442
0$
0+
#443
1$
1+
#444
0$
0+
#445
1$
1+
#446
0$
0+
#447
1$
1+
#448
0$
0+
#449
1$
1+
#450
0$
0+
#451
1$
1+
#452
0$
0+
#453
1$
1+
#454
0$
0+
#455
b1110 >
b1 5
b1001 4
b1001 8
b1110 -
b1110 :
1$
1'
1/
1+
#456
0$
0+
#457
b0 >
bz -
bz :
1$
0'
0/
1+
#458
0$
0+
#459
1$
1+
#460
0$
0+
#461
1$
1+
#462
0$
0+
#463
1$
1+
#464
0$
0+
#465
1$
1+
#466
0$
0+
#467
1$
1+
#468
0$
0+
#469
1$
1+
#470
0$
0+
#471
1$
1+
#472
0$
0+
#473
1$
1+
#474
0$
0+
#475
1$
1+
#476
0$
0+
#477
b1110 >
b0 5
1"
b1010 4
b1010 8
b1110 -
b1110 :
1$
1'
1/
1+
#478
0$
0+
#479
b0 >
bz -
bz :
1$
0'
0/
1+
#480
0$
0+
#481
1$
1+
#482
0$
0+
#483
1$
1+
#484
0$
0+
#485
1$
1+
#486
0$
0+
#487
1$
1+
#488
0$
0+
#489
1$
1+
#490
0$
0+
#491
1$
1+
#492
0$
0+
#493
1$
1+
#494
0$
0+
#495
1$
1+
#496
0$
0+
#497
1$
1+
#498
0$
0+
#499
bx >
b1011 4
b1011 8
bx -
bx :
1$
1'
1/
1+
#500
0$
0+
#501
b0 >
bz -
bz :
1$
0'
0/
1+
#502
0$
0+
#503
1$
1+
#504
0$
0+
#505
1$
1+
#506
0$
0+
#507
1$
1+
#508
0$
0+
#509
1$
1+
#510
0$
0+
#511
1$
1+
#512
0$
0+
#513
1$
1+
#514
0$
0+
#515
1$
1+
#516
0$
0+
#517
1$
1+
#518
0$
0+
#519
1$
1+
#520
0$
0+
#521
bx >
b1100 4
b1100 8
bx -
bx :
1$
1'
1/
1+
#522
0$
0+
#523
b0 >
bz -
bz :
1$
0'
0/
1+
#524
0$
0+
#525
1$
1+
#526
0$
0+
#527
1$
1+
#528
0$
0+
#529
1$
1+
#530
0$
0+
#531
1$
1+
#532
0$
0+
#533
1$
1+
#534
0$
0+
#535
1$
1+
#536
0$
0+
#537
1$
1+
#538
0$
0+
#539
1$
1+
#540
0$
0+
#541
1$
1+
#542
0$
0+
#543
bx >
b1101 4
b1101 8
bx -
bx :
1$
1'
1/
1+
#544
0$
0+
#545
b0 >
bz -
bz :
1$
0'
0/
1+
#546
0$
0+
#547
1$
1+
#548
0$
0+
#549
1$
1+
#550
0$
0+
#551
1$
1+
#552
0$
0+
#553
1$
1+
#554
0$
0+
#555
1$
1+
#556
0$
0+
#557
1$
1+
#558
0$
0+
#559
1$
1+
#560
0$
0+
#561
1$
1+
#562
0$
0+
#563
1$
1+
#564
0$
0+
#565
bx >
b1110 4
b1110 8
bx -
bx :
1$
1'
1/
1+
#566
0$
0+
#567
b0 >
bz -
bz :
1$
0'
0/
1+
#568
0$
0+
#569
1$
1+
#570
0$
0+
#571
1$
1+
#572
0$
0+
#573
1$
1+
#574
0$
0+
#575
1$
1+
#576
0$
0+
#577
1$
1+
#578
0$
0+
#579
1$
1+
#580
0$
0+
#581
1$
1+
#582
0$
0+
#583
1$
1+
#584
0$
0+
#585
1$
1+
#586
0$
0+
#587
bx >
b1111 4
b1111 8
bx -
bx :
1$
1'
1/
1+
#588
0$
0+
#589
b0 >
bz -
bz :
1$
0'
0/
1+
#590
0$
0+
#591
1$
1+
#592
0$
0+
#593
1$
1+
#594
0$
0+
#595
1$
1+
#596
0$
0+
#597
1$
1+
#598
0$
0+
#599
1$
1+
#600
0$
0+
#601
1$
1+
#602
0$
0+
#603
1$
1+
#604
0$
0+
#605
1$
1+
#606
0$
0+
#607
1$
1+
#608
0$
0+
#609
bx >
b10000 4
b10000 8
bx -
bx :
1$
1'
1/
1+
#610
0$
0+
#611
b0 >
bz -
bz :
1$
0'
0/
1+
#612
0$
0+
#613
1$
1+
#614
0$
0+
#615
1$
1+
#616
0$
0+
#617
1$
1+
#618
0$
0+
#619
1$
1+
#620
0$
0+
#621
1$
1+
#622
0$
0+
#623
1$
1+
#624
0$
0+
#625
1$
1+
#626
0$
0+
#627
1$
1+
#628
0$
0+
#629
1$
1+
#630
0$
0+
#631
bx >
b10001 4
b10001 8
bx -
bx :
1$
1'
1/
1+
#632
0$
0+
#633
b0 >
bz -
bz :
1$
0'
0/
1+
#634
0$
0+
#635
1$
1+
#636
0$
0+
#637
1$
1+
#638
0$
0+
#639
1$
1+
#640
0$
0+
#641
1$
1+
#642
0$
0+
#643
1$
1+
#644
0$
0+
#645
1$
1+
#646
0$
0+
#647
1$
1+
#648
0$
0+
#649
1$
1+
#650
0$
0+
#651
1$
1+
#652
0$
0+
#653
bx >
b10010 4
b10010 8
bx -
bx :
1$
1'
1/
1+
#654
0$
0+
#655
b0 >
bz -
bz :
1$
0'
0/
1+
#656
0$
0+
#657
1$
1+
#658
0$
0+
#659
1$
1+
#660
0$
0+
#661
1$
1+
#662
0$
0+
#663
1$
1+
#664
0$
0+
#665
1$
1+
#666
0$
0+
#667
1$
1+
#668
0$
0+
#669
1$
1+
#670
0$
0+
#671
1$
1+
#672
0$
0+
#673
1$
1+
#674
0$
0+
#675
bx >
b10011 4
b10011 8
bx -
bx :
1$
1'
1/
1+
#676
0$
0+
#677
b0 >
bz -
bz :
1$
0'
0/
1+
#678
0$
0+
#679
1$
1+
#680
0$
0+
#681
1$
1+
#682
0$
0+
#683
1$
1+
#684
0$
0+
#685
1$
1+
#686
0$
0+
#687
1$
1+
#688
0$
0+
#689
1$
1+
#690
0$
0+
#691
1$
1+
#692
0$
0+
#693
1$
1+
#694
0$
0+
#695
1$
1+
#696
0$
0+
#697
bx >
b10100 4
b10100 8
bx -
bx :
1$
1'
1/
1+
#698
0$
0+
#699
b0 >
bz -
bz :
1$
0'
0/
1+
#700
0$
0+
#701
1$
1+
#702
0$
0+
#703
1$
1+
#704
0$
0+
#705
1$
1+
#706
0$
0+
#707
1$
1+
#708
0$
0+
#709
1$
1+
#710
0$
0+
#711
1$
1+
#712
0$
0+
#713
1$
1+
#714
0$
0+
#715
1$
1+
#716
0$
0+
#717
1$
1+
#718
0$
0+
#719
bx >
b10101 4
b10101 8
bx -
bx :
1$
1'
1/
1+
#720
0$
0+
#721
b0 >
bz -
bz :
1$
0'
0/
1+
#722
0$
0+
#723
1$
1+
#724
0$
0+
#725
1$
1+
#726
0$
0+
#727
1$
1+
#728
0$
0+
#729
1$
1+
#730
0$
0+
#731
1$
1+
#732
0$
0+
#733
1$
1+
#734
0$
0+
#735
1$
1+
#736
0$
0+
#737
1$
1+
#738
0$
0+
#739
1$
1+
#740
0$
0+
#741
bx >
b10110 4
b10110 8
bx -
bx :
1$
1'
1/
1+
#742
0$
0+
#743
b0 >
bz -
bz :
1$
0'
0/
1+
#744
0$
0+
#745
1$
1+
#746
0$
0+
#747
1$
1+
#748
0$
0+
#749
1$
1+
#750
0$
0+
#751
1$
1+
#752
0$
0+
#753
1$
1+
#754
0$
0+
#755
1$
1+
#756
0$
0+
#757
1$
1+
#758
0$
0+
#759
1$
1+
#760
0$
0+
#761
1$
1+
#762
0$
0+
#763
bx >
b10111 4
b10111 8
bx -
bx :
1$
1'
1/
1+
#764
0$
0+
#765
b0 >
bz -
bz :
1$
0'
0/
1+
#766
0$
0+
#767
1$
1+
#768
0$
0+
#769
1$
1+
#770
0$
0+
#771
1$
1+
#772
0$
0+
#773
1$
1+
#774
0$
0+
#775
1$
1+
#776
0$
0+
#777
1$
1+
#778
0$
0+
#779
1$
1+
#780
0$
0+
#781
1$
1+
#782
0$
0+
#783
1$
1+
#784
0$
0+
#785
bx >
b11000 4
b11000 8
bx -
bx :
1$
1'
1/
1+
#786
0$
0+
#787
b0 >
bz -
bz :
1$
0'
0/
1+
#788
0$
0+
#789
1$
1+
#790
0$
0+
#791
1$
1+
#792
0$
0+
#793
1$
1+
#794
0$
0+
#795
1$
1+
#796
0$
0+
#797
1$
1+
#798
0$
0+
#799
1$
1+
#800
0$
0+
#801
1$
1+
#802
0$
0+
#803
1$
1+
#804
0$
0+
#805
1$
1+
#806
0$
0+
#807
bx >
b11001 4
b11001 8
bx -
bx :
1$
1'
1/
1+
#808
0$
0+
#809
b0 >
bz -
bz :
1$
0'
0/
1+
#810
0$
0+
#811
1$
1+
#812
0$
0+
#813
1$
1+
#814
0$
0+
#815
1$
1+
#816
0$
0+
#817
1$
1+
#818
0$
0+
#819
1$
1+
#820
0$
0+
#821
1$
1+
#822
0$
0+
#823
1$
1+
#824
0$
0+
#825
1$
1+
#826
0$
0+
#827
1$
1+
#828
0$
0+
#829
bx >
b11010 4
b11010 8
bx -
bx :
1$
1'
1/
1+
#830
0$
0+
#831
b0 >
bz -
bz :
1$
0'
0/
1+
#832
0$
0+
#833
1$
1+
#834
0$
0+
#835
1$
1+
#836
0$
0+
#837
1$
1+
#838
0$
0+
#839
1$
1+
#840
0$
0+
#841
1$
1+
#842
0$
0+
#843
1$
1+
#844
0$
0+
#845
1$
1+
#846
0$
0+
#847
1$
1+
#848
0$
0+
#849
1$
1+
#850
0$
0+
#851
bx >
b11011 4
b11011 8
bx -
bx :
1$
1'
1/
1+
#852
0$
0+
#853
b0 >
bz -
bz :
1$
0'
0/
1+
#854
0$
0+
#855
1$
1+
#856
0$
0+
#857
1$
1+
#858
0$
0+
#859
1$
1+
#860
0$
0+
#861
1$
1+
#862
0$
0+
#863
1$
1+
#864
0$
0+
#865
1$
1+
#866
0$
0+
#867
1$
1+
#868
0$
0+
#869
1$
1+
#870
0$
0+
#871
1$
1+
#872
0$
0+
#873
bx >
b11100 4
b11100 8
bx -
bx :
1$
1'
1/
1+
#874
0$
0+
#875
b0 >
bz -
bz :
1$
0'
0/
1+
#876
0$
0+
#877
1$
1+
#878
0$
0+
#879
1$
1+
#880
0$
0+
#881
1$
1+
#882
0$
0+
#883
1$
1+
#884
0$
0+
#885
1$
1+
#886
0$
0+
#887
1$
1+
#888
0$
0+
#889
1$
1+
#890
0$
0+
#891
1$
1+
#892
0$
0+
#893
1$
1+
#894
0$
0+
#895
bx >
b11101 4
b11101 8
bx -
bx :
1$
1'
1/
1+
#896
0$
0+
#897
b0 >
bz -
bz :
1$
0'
0/
1+
#898
0$
0+
#899
1$
1+
#900
0$
0+
#901
1$
1+
#902
0$
0+
#903
1$
1+
#904
0$
0+
#905
1$
1+
#906
0$
0+
#907
1$
1+
#908
0$
0+
#909
1$
1+
#910
0$
0+
#911
1$
1+
#912
0$
0+
#913
1$
1+
#914
0$
0+
#915
1$
1+
#916
0$
0+
#917
bx >
b11110 4
b11110 8
bx -
bx :
1$
1'
1/
1+
#918
0$
0+
#919
b0 >
bz -
bz :
1$
0'
0/
1+
#920
0$
0+
#921
1$
1+
#922
0$
0+
#923
1$
1+
#924
0$
0+
#925
1$
1+
#926
0$
0+
#927
1$
1+
#928
0$
0+
#929
1$
1+
#930
0$
0+
#931
1$
1+
#932
0$
0+
#933
1$
1+
#934
0$
0+
#935
1$
1+
#936
0$
0+
#937
1$
1+
#938
0$
0+
#939
bx >
b11111 4
b11111 8
bx -
bx :
1$
1'
1/
1+
#940
0$
0+
#941
b0 >
bz -
bz :
1$
0'
0/
1+
#942
0$
0+
#943
1$
1+
#944
0$
0+
#945
1$
1+
#946
0$
0+
#947
1$
1+
#948
0$
0+
#949
1$
1+
#950
0$
0+
#951
1$
1+
#952
0$
0+
#953
1$
1+
#954
0$
0+
#955
1$
1+
#956
0$
0+
#957
1$
1+
#958
0$
0+
#959
1$
1+
#960
0$
0+
#961
bx >
b100000 4
b100000 8
bx -
bx :
1$
1'
1/
1+
#962
0$
0+
#963
b0 >
bz -
bz :
1$
0'
0/
1+
#964
0$
0+
#965
1$
1+
#966
0$
0+
#967
1$
1+
#968
0$
0+
#969
1$
1+
#970
0$
0+
#971
1$
1+
#972
0$
0+
#973
1$
1+
#974
0$
0+
#975
1$
1+
#976
0$
0+
#977
1$
1+
#978
0$
0+
#979
1$
1+
#980
0$
0+
#981
1$
1+
#982
0$
0+
#983
bx >
b100001 4
b100001 8
bx -
bx :
1$
1'
1/
1+
#984
0$
0+
#985
b0 >
bz -
bz :
1$
0'
0/
1+
#986
0$
0+
#987
1$
1+
#988
0$
0+
#989
1$
1+
#990
0$
0+
#991
1$
1+
#992
0$
0+
#993
1$
1+
#994
0$
0+
#995
1$
1+
#996
0$
0+
#997
1$
1+
#998
0$
0+
#999
1$
1+
#1000
0$
0+
#1001
1$
1+
#1002
0$
0+
#1003
1$
1+
#1004
0$
0+
#1005
bx >
b100010 4
b100010 8
bx -
bx :
1$
1'
1/
1+
#1006
0$
0+
#1007
b0 >
bz -
bz :
1$
0'
0/
1+
#1008
0$
0+
#1009
1$
1+
#1010
0$
0+
#1011
1$
1+
#1012
0$
0+
#1013
1$
1+
#1014
0$
0+
#1015
1$
1+
#1016
0$
0+
#1017
1$
1+
#1018
0$
0+
#1019
1$
1+
#1020
0$
0+
#1021
1$
1+
#1022
0$
0+
#1023
1$
1+
#1024
0$
0+
#1025
1$
1+
#1026
0$
0+
#1027
bx >
b100011 4
b100011 8
bx -
bx :
1$
1'
1/
1+
#1028
0$
0+
#1029
b0 >
bz -
bz :
1$
0'
0/
1+
#1030
0$
0+
#1031
1$
1+
#1032
0$
0+
#1033
1$
1+
#1034
0$
0+
#1035
1$
1+
#1036
0$
0+
#1037
1$
1+
#1038
0$
0+
#1039
1$
1+
#1040
0$
0+
#1041
1$
1+
#1042
0$
0+
#1043
1$
1+
#1044
0$
0+
#1045
1$
1+
#1046
0$
0+
#1047
1$
1+
#1048
0$
0+
#1049
bx >
b100100 4
b100100 8
bx -
bx :
1$
1'
1/
1+
#1050
0$
0+
#1051
b0 >
bz -
bz :
1$
0'
0/
1+
#1052
0$
0+
#1053
1$
1+
#1054
0$
0+
#1055
1$
1+
#1056
0$
0+
#1057
1$
1+
#1058
0$
0+
#1059
1$
1+
#1060
0$
0+
#1061
1$
1+
#1062
0$
0+
#1063
1$
1+
#1064
0$
0+
#1065
1$
1+
#1066
0$
0+
#1067
1$
1+
#1068
0$
0+
#1069
1$
1+
#1070
0$
0+
#1071
bx >
b100101 4
b100101 8
bx -
bx :
1$
1'
1/
1+
#1072
0$
0+
#1073
b0 >
bz -
bz :
1$
0'
0/
1+
#1074
0$
0+
#1075
1$
1+
#1076
0$
0+
#1077
1$
1+
#1078
0$
0+
#1079
1$
1+
#1080
0$
0+
#1081
1$
1+
#1082
0$
0+
#1083
1$
1+
#1084
0$
0+
#1085
1$
1+
#1086
0$
0+
#1087
1$
1+
#1088
0$
0+
#1089
1$
1+
#1090
0$
0+
#1091
1$
1+
#1092
0$
0+
#1093
bx >
b100110 4
b100110 8
bx -
bx :
1$
1'
1/
1+
#1094
0$
0+
#1095
b0 >
bz -
bz :
1$
0'
0/
1+
#1096
0$
0+
#1097
1$
1+
#1098
0$
0+
#1099
1$
1+
#1100
0$
0+
#1101
1$
1+
#1102
0$
0+
#1103
1$
1+
#1104
0$
0+
#1105
1$
1+
#1106
0$
0+
#1107
1$
1+
#1108
0$
0+
#1109
1$
1+
#1110
0$
0+
#1111
1$
1+
#1112
0$
0+
#1113
1$
1+
#1114
0$
0+
#1115
bx >
b100111 4
b100111 8
bx -
bx :
1$
1'
1/
1+
#1116
0$
0+
#1117
b0 >
bz -
bz :
1$
0'
0/
1+
#1118
0$
0+
#1119
1$
1+
#1120
0$
0+
#1121
1$
1+
#1122
0$
0+
#1123
1$
1+
#1124
0$
0+
#1125
1$
1+
#1126
0$
0+
#1127
1$
1+
#1128
0$
0+
#1129
1$
1+
#1130
0$
0+
#1131
1$
1+
#1132
0$
0+
#1133
1$
1+
#1134
0$
0+
#1135
1$
1+
#1136
0$
0+
#1137
bx >
b101000 4
b101000 8
bx -
bx :
1$
1'
1/
1+
#1138
0$
0+
#1139
b0 >
bz -
bz :
1$
0'
0/
1+
#1140
0$
0+
#1141
1$
1+
#1142
0$
0+
#1143
1$
1+
#1144
0$
0+
#1145
1$
1+
#1146
0$
0+
#1147
1$
1+
#1148
0$
0+
#1149
1$
1+
#1150
0$
0+
#1151
1$
1+
#1152
0$
0+
#1153
1$
1+
#1154
0$
0+
#1155
1$
1+
#1156
0$
0+
#1157
1$
1+
#1158
0$
0+
#1159
bx >
b101001 4
b101001 8
bx -
bx :
1$
1'
1/
1+
#1160
0$
0+
#1161
b0 >
bz -
bz :
1$
0'
0/
1+
#1162
0$
0+
#1163
1$
1+
#1164
0$
0+
#1165
1$
1+
#1166
0$
0+
#1167
1$
1+
#1168
0$
0+
#1169
1$
1+
#1170
0$
0+
#1171
1$
1+
#1172
0$
0+
#1173
1$
1+
#1174
0$
0+
#1175
1$
1+
#1176
0$
0+
#1177
1$
1+
#1178
0$
0+
#1179
1$
1+
#1180
0$
0+
#1181
bx >
b101010 4
b101010 8
bx -
bx :
1$
1'
1/
1+
#1182
0$
0+
#1183
b0 >
bz -
bz :
1$
0'
0/
1+
#1184
0$
0+
#1185
1$
1+
#1186
0$
0+
#1187
1$
1+
#1188
0$
0+
#1189
1$
1+
#1190
0$
0+
#1191
1$
1+
#1192
0$
0+
#1193
1$
1+
#1194
0$
0+
#1195
1$
1+
#1196
0$
0+
#1197
1$
1+
#1198
0$
0+
#1199
1$
1+
#1200
0$
0+
#1201
1$
1+
#1202
0$
0+
#1203
bx >
b101011 4
b101011 8
bx -
bx :
1$
1'
1/
1+
#1204
0$
0+
#1205
b0 >
bz -
bz :
1$
0'
0/
1+
#1206
0$
0+
#1207
1$
1+
#1208
0$
0+
#1209
1$
1+
